<svg width="100" height="82" viewBox="0 0 100 82" fill="none" xmlns="http://www.w3.org/2000/svg">
<path d="M9.02393 51.7833C17.606 65.4181 41.6898 75.3043 52.659 78.5431C90.2294 89.8759 98.9061 63.7498 99.1032 53.2157C99.6074 26.2637 78.6348 52.0601 67.9234 29.4657C49.0012 4.85791 31.9262 -6.82849 13.7442 6.11457C-4.43784 19.0576 -1.70372 34.7399 9.02393 51.7833Z" fill="#E2FDD7"/>
</svg>
