<?xml version="1.0" encoding="utf-8"?>
<!-- Generator: Adobe Illustrator 26.0.1, SVG Export Plug-In . SVG Version: 6.00 Build 0)  -->
<svg version="1.1" xmlns="http://www.w3.org/2000/svg" xmlns:xlink="http://www.w3.org/1999/xlink" x="0px" y="0px"
	 viewBox="0 0 446.31 434.09" style="enable-background:new 0 0 446.31 434.09;" xml:space="preserve">
<style type="text/css">
	.st0{fill:#FFFFFF;}
	.st1{fill:#009388;}
	.st2{opacity:0.32;fill:#009388;}
	.st3{opacity:0.32;}
	.st4{opacity:0.47;}
	.st5{fill:#FF8B7B;}
	.st6{opacity:0.57;fill:#FF8B7B;}
	.st7{fill:#FFBAAA;}
	.st8{opacity:0.38;fill:#FFBAAA;}
	.st9{opacity:0.72;fill:#FFBAAA;}
	.st10{fill:#4F85EA;}
	.st11{opacity:0.24;}
	.st12{opacity:0.36;}
	.st13{fill:#5C2521;}
	.st14{fill:#FFE3E5;}
	.st15{opacity:0.48;fill:#FFBAAA;}
	.st16{opacity:0.26;}
	.st17{fill:#FFCB6F;}
	.st18{opacity:0.2;}
	.st19{opacity:0.6;fill:#FF8B7B;}
	.st20{opacity:0.55;fill:#FF8B7B;}
	.st21{opacity:0.22;fill:#4F85EA;}
	.st22{opacity:0.28;fill:#FFE3E5;}
	.st23{opacity:0.44;fill:#FFE3E5;}
	.st24{opacity:0.44;}
	.st25{opacity:0.51;}
	.st26{opacity:0.48;fill:#FFCB6F;}
	.st27{opacity:0.52;fill:#4F85EA;}
	.st28{opacity:0.67;fill:#5C2521;}
	.st29{opacity:0.32;fill:#5C2521;}
	.st30{fill:none;stroke:#FFFFFF;stroke-width:0.798;stroke-linecap:round;stroke-linejoin:round;stroke-miterlimit:10;}
	.st31{fill:none;stroke:#FFFFFF;stroke-linecap:round;stroke-linejoin:round;stroke-miterlimit:10;}
	.st32{opacity:0.79;fill:#FFE3E5;}
	.st33{fill:none;stroke:#FFFFFF;stroke-width:0.7071;stroke-linecap:round;stroke-linejoin:round;stroke-miterlimit:10;}
</style>
<g id="BACKGROUND">
</g>
<g id="OBJECTS">
	<g>
		<g>
			<g>
				
					<rect x="144.34" y="96.42" transform="matrix(0.9257 -0.3783 0.3783 0.9257 -28.0221 62.5008)" class="st0" width="1.42" height="12.3"/>
			</g>
		</g>
	</g>
	<g>
		<g>
			<g>
				<g>
					<g>
						<g>
							<path class="st1" d="M67.83,407.28c1.89,2.17,4.74,3.49,7.27,4.67c0.23,0.11,0.5,0.23,0.77,0.31
								c1.16,0.49,2.33,0.94,3.52,1.31c13.54,4.42,27.85,0.89,40.72-4.78c0.63-0.26,1.25-0.54,1.85-0.84l-4.07-2.62
								c-2.48-1.57-5.35-2.71-8.31-3.56c-3.02-0.87-6.1-1.49-9-2.02c-5.66-1.05-11.59-1.49-17.41-1.03
								c-0.99,0.08-1.96,0.18-2.94,0.32c-1.35,0.18-2.7,0.4-4.06,0.69c-0.61,0.13-1.23,0.28-1.85,0.43
								c-1.93,0.46-7.25,1.24-7.87,3.51C66.04,404.96,67.03,406.38,67.83,407.28z"/>
						</g>
						<path class="st2" d="M67.83,407.28c1.89,2.17,4.74,3.49,7.27,4.67c0.23,0.11,0.5,0.23,0.77,0.31
							c1.16,0.49,2.33,0.94,3.52,1.31l0.14-0.12c4.22-3.55,5.12-9.46,1.98-13.2c-0.39-0.46-0.82-0.85-1.29-1.21
							c-1.35,0.18-2.7,0.4-4.06,0.69c-0.61,0.13-1.23,0.28-1.85,0.43c-1.93,0.46-7.25,1.24-7.87,3.51
							C66.04,404.96,67.03,406.38,67.83,407.28z"/>
						<g class="st3">
							<path class="st1" d="M67.83,407.28c1.89,2.17,4.74,3.49,7.27,4.67c0.23,0.11,0.5,0.23,0.77,0.31
								c1.55,0.34,3.17,0.48,4.83,0.51c5.98,0.06,12.47-1.57,18.86-3.91c0.73-0.27,1.51-0.55,2.12-1.17
								c2.29-2.27-1.23-3.33-2.28-3.85c-1.07-0.54-2.21-1.04-3.37-1.5c-0.65-0.24-1.28-0.46-1.94-0.69
								c-3.7-1.19-7.7-1.89-11.86-2.05c-1.98-0.08-4.02-0.03-6.07,0.12c-0.61,0.13-1.23,0.28-1.85,0.43
								c-1.93,0.46-7.25,1.24-7.87,3.51C66.04,404.96,67.03,406.38,67.83,407.28z"/>
						</g>
						<g class="st4">
							<path class="st1" d="M84.83,414.5c18.63,0.8,25.54-5.06,25.54-5.06s-4.72-0.61-5.05-0.64c1.74-0.34,6.52-2.14,6.52-2.14
								s-4.98-1.29-5.7-1.52c0.88-0.25,4.29-0.84,4.29-0.84s-9.99-4.18-14.41-5.06c-0.87-0.17-1.74-0.3-2.61-0.44
								c2.42,0.2,4.84,0.51,7.19,0.95c2.88,0.54,5.98,1.14,8.98,2.02c2.97,0.86,5.85,1.99,8.32,3.57c0,0,4.08,2.61,4.08,2.61
								c-0.61,0.31-1.24,0.59-1.86,0.86c-13.53,5.95-28.61,9.51-42.76,4.07C79.79,413.65,82.28,414.39,84.83,414.5z"/>
						</g>
						<g class="st4">
							<path class="st1" d="M77.78,405.42c4.96-0.26,9.8-0.83,14.78-0.69c2.42,0.07,4.86,0.14,7.28,0.3
								c2.43,0.16,4.82,0.53,7.27,0.57c3.69,0.06,8,0.26,11.64,1.58c-1.05-0.11-2.11-0.14-3.16-0.21c-2.67-0.19-5.33-0.18-8-0.29
								c-5.25-0.2-10.49-0.48-15.75-0.38c-5.31,0.1-10.61,0.48-15.92,0.62c-2.63,0.07-5.26,0.23-7.87,0.57
								c-0.06-0.07-0.15-0.13-0.21-0.2c-0.41-0.48-0.87-1.09-1.17-1.75C70.37,405.56,74.08,405.62,77.78,405.42z"/>
						</g>
					</g>
					<g>
						<g class="st4">
							<path class="st1" d="M69.9,395.24c18.36,3.28,25.98-1.6,25.98-1.6s-4.6-1.23-4.91-1.31c1.77-0.1,6.74-1.25,6.74-1.25
								s-4.76-1.95-5.45-2.27c0.91-0.13,4.36-0.25,4.36-0.25s-9.34-5.48-13.61-6.94c-0.83-0.29-1.68-0.53-2.53-0.78
								c2.38,0.53,4.73,1.15,7,1.9c2.78,0.92,5.77,1.93,8.63,3.2c2.83,1.25,5.53,2.75,7.77,4.65c0,0,3.69,3.13,3.69,3.13
								c-0.65,0.22-1.3,0.41-1.96,0.6c-14.21,4.08-29.63,5.6-42.92-1.69C65.02,393.72,67.39,394.79,69.9,395.24z"/>
						</g>
						<g class="st4">
							<path class="st1" d="M64.13,385.3c4.95,0.4,9.82,0.49,14.74,1.29c2.39,0.39,4.8,0.79,7.17,1.27
								c2.39,0.49,4.71,1.17,7.12,1.54c3.65,0.56,7.89,1.33,11.32,3.12c-1.02-0.25-2.07-0.42-3.1-0.64
								c-2.62-0.54-5.26-0.9-7.89-1.35c-5.17-0.9-10.33-1.88-15.55-2.49c-5.28-0.61-10.58-0.95-15.86-1.51
								c-2.62-0.28-5.25-0.48-7.88-0.49c-0.05-0.08-0.13-0.14-0.18-0.23c-0.35-0.53-0.72-1.2-0.93-1.89
								C56.77,384.45,60.43,385,64.13,385.3z"/>
						</g>
					</g>
					<g>
						<g>
							<path class="st1" d="M33.32,324.51c0.71,1.95,2.3,3.59,3.7,5.05c0.13,0.14,0.28,0.28,0.44,0.41c0.66,0.63,1.33,1.24,2.04,1.8
								c8,6.51,18.58,7.84,28.76,7.36c0.5-0.01,0.99-0.04,1.47-0.09l-2.07-2.83c-1.27-1.7-2.91-3.22-4.69-4.56
								c-1.81-1.38-3.73-2.59-5.56-3.71c-3.55-2.18-7.44-4.02-11.5-5.22c-0.69-0.2-1.37-0.39-2.07-0.55
								c-0.96-0.23-1.93-0.44-2.92-0.59c-0.44-0.07-0.9-0.13-1.37-0.19c-1.43-0.19-5.22-1.04-6.23,0.32
								C32.72,322.47,33.01,323.69,33.32,324.51z"/>
						</g>
						<path class="st2" d="M33.32,324.51c0.71,1.95,2.3,3.59,3.7,5.05c0.13,0.14,0.28,0.28,0.44,0.41c0.66,0.63,1.33,1.24,2.04,1.8
							l0.13-0.04c3.77-1.3,5.92-5.06,4.77-8.4c-0.14-0.41-0.33-0.79-0.56-1.15c-0.96-0.23-1.93-0.44-2.92-0.59
							c-0.44-0.07-0.9-0.13-1.37-0.19c-1.43-0.19-5.22-1.04-6.23,0.32C32.72,322.47,33.01,323.69,33.32,324.51z"/>
						<g class="st3">
							<path class="st1" d="M33.32,324.51c0.71,1.95,2.3,3.59,3.7,5.05c0.13,0.14,0.28,0.28,0.44,0.41c0.96,0.63,2.01,1.15,3.13,1.6
								c4.03,1.59,8.83,2.18,13.76,2.26c0.56,0.01,1.17,0.02,1.74-0.24c2.14-0.94,0.03-2.57-0.54-3.19
								c-0.58-0.64-1.22-1.28-1.89-1.89c-0.37-0.33-0.74-0.64-1.13-0.97c-2.19-1.77-4.71-3.28-7.48-4.47
								c-1.32-0.57-2.71-1.07-4.14-1.5c-0.44-0.07-0.9-0.13-1.37-0.19c-1.43-0.19-5.22-1.04-6.23,0.32
								C32.72,322.47,33.01,323.69,33.32,324.51z"/>
						</g>
						<g class="st4">
							<path class="st1" d="M42.93,333.8c12.38,5.38,18.57,3.22,18.57,3.22s-3.03-1.64-3.24-1.75c1.26,0.23,4.96,0.25,4.96,0.25
								s-3.03-2.17-3.46-2.51c0.66,0.06,3.11,0.55,3.11,0.55s-5.66-5.42-8.42-7.17c-0.54-0.34-1.09-0.66-1.65-0.97
								c1.59,0.77,3.14,1.6,4.61,2.51c1.81,1.11,3.74,2.33,5.55,3.7c1.78,1.36,3.44,2.86,4.7,4.57c0,0,2.08,2.82,2.08,2.82
								c-0.49,0.05-0.99,0.07-1.48,0.1c-10.69,0.5-21.81-1.01-29.95-8.36C39.74,331.92,41.23,333.07,42.93,333.8z"/>
						</g>
						<g class="st4">
							<path class="st1" d="M40.53,325.84c3.42,1.11,6.84,1.99,10.17,3.37c1.62,0.68,3.25,1.36,4.84,2.09
								c1.6,0.74,3.12,1.61,4.76,2.28c2.48,1,5.33,2.25,7.45,4.09c-0.68-0.35-1.39-0.64-2.08-0.97c-1.75-0.82-3.56-1.51-5.33-2.27
								c-3.49-1.5-6.96-3.05-10.54-4.35c-3.62-1.31-7.29-2.44-10.92-3.72c-1.8-0.64-3.62-1.21-5.47-1.66
								c-0.03-0.06-0.07-0.12-0.09-0.19c-0.16-0.43-0.3-0.96-0.34-1.49C35.48,324.01,37.97,325.01,40.53,325.84z"/>
						</g>
					</g>
				</g>
			</g>
			<g>
				<g>
					<g>
						<g class="st4">
							<path class="st1" d="M90.45,337.91c16.5,8.68,25.25,6.33,25.25,6.33s-4.01-2.56-4.29-2.74c1.72,0.44,6.81,0.85,6.81,0.85
								s-3.95-3.29-4.51-3.81c0.91,0.15,4.23,1.07,4.23,1.07s-7.24-8.04-10.87-10.73c-0.71-0.53-1.44-1.02-2.17-1.51
								c2.11,1.22,4.16,2.52,6.1,3.93c2.37,1.72,4.92,3.59,7.26,5.66c2.32,2.05,4.44,4.3,6,6.78c0,0,2.57,4.1,2.57,4.1
								c-0.68,0.01-1.37,0-2.05-0.02c-14.78-0.4-29.93-3.62-40.4-14.58C86.26,334.99,88.19,336.73,90.45,337.91z"/>
						</g>
					</g>
					<g>
						<path class="st2" d="M162.1,312.59c1.05,2.68,0.9,5.82,0.79,8.61c-0.01,0.26-0.03,0.55-0.08,0.83
							c-0.1,1.26-0.24,2.5-0.47,3.73l-0.17,0.07c-5.09,2.1-10.75,0.18-12.62-4.34c-0.23-0.56-0.38-1.12-0.48-1.7
							c0.78-1.11,1.6-2.22,2.49-3.29c0.4-0.48,0.82-0.96,1.24-1.45c1.3-1.5,4.45-5.85,6.75-5.36
							C160.86,309.93,161.66,311.47,162.1,312.59z"/>
						<g class="st3">
							<path class="st1" d="M162.1,312.59c1.05,2.68,0.9,5.82,0.79,8.61c-0.01,0.26-0.03,0.55-0.08,0.83
								c-0.41,1.53-1.04,3.03-1.78,4.52c-2.71,5.33-7.15,10.33-12.18,14.92c-0.58,0.52-1.19,1.09-2.02,1.34
								c-3.07,0.99-2.39-2.63-2.36-3.8c0.02-1.19,0.09-2.44,0.23-3.68c0.08-0.69,0.18-1.35,0.29-2.04c0.65-3.83,1.88-7.7,3.66-11.46
								c0.84-1.79,1.83-3.58,2.91-5.33c0.4-0.48,0.82-0.96,1.24-1.45c1.3-1.5,4.45-5.85,6.75-5.36
								C160.86,309.93,161.66,311.47,162.1,312.59z"/>
						</g>
					</g>
					<g>
						<g>
							<path class="st1" d="M150.09,293.53c1.05,2.68,0.91,5.82,0.79,8.61c-0.01,0.26-0.03,0.55-0.08,0.83
								c-0.1,1.26-0.24,2.5-0.47,3.73c-2.33,14.05-12.07,25.11-23.04,33.91c-0.52,0.44-1.06,0.86-1.6,1.26l-0.44-4.82
								c-0.25-2.92,0.07-5.99,0.68-9.02c0.62-3.08,1.49-6.1,2.36-8.92c1.68-5.5,4.03-10.97,7.13-15.92
								c0.53-0.84,1.07-1.66,1.64-2.46c0.78-1.11,1.6-2.22,2.49-3.29c0.4-0.48,0.82-0.96,1.24-1.45c1.3-1.5,4.45-5.85,6.75-5.36
								C148.85,290.88,149.66,292.41,150.09,293.53z"/>
						</g>
						<path class="st2" d="M150.09,293.53c1.05,2.68,0.91,5.82,0.79,8.61c-0.01,0.26-0.03,0.55-0.08,0.83
							c-0.1,1.26-0.24,2.5-0.47,3.73l-0.17,0.07c-5.09,2.11-10.75,0.17-12.62-4.34c-0.23-0.56-0.38-1.12-0.48-1.7
							c0.78-1.11,1.6-2.22,2.49-3.29c0.4-0.48,0.82-0.96,1.24-1.45c1.3-1.5,4.45-5.85,6.75-5.36
							C148.85,290.88,149.66,292.41,150.09,293.53z"/>
						<g class="st3">
							<path class="st1" d="M150.09,293.53c1.05,2.68,0.91,5.82,0.79,8.61c-0.01,0.26-0.03,0.55-0.08,0.83
								c-0.41,1.53-1.04,3.03-1.78,4.52c-2.71,5.33-7.15,10.33-12.18,14.92c-0.58,0.52-1.19,1.09-2.02,1.34
								c-3.07,0.99-2.39-2.63-2.36-3.8c0.02-1.19,0.09-2.44,0.23-3.68c0.08-0.69,0.18-1.35,0.29-2.04c0.65-3.83,1.88-7.7,3.66-11.46
								c0.84-1.79,1.83-3.58,2.91-5.33c0.4-0.48,0.82-0.96,1.24-1.45c1.3-1.5,4.45-5.85,6.75-5.36
								C148.85,290.88,149.66,292.41,150.09,293.53z"/>
						</g>
						<g class="st4">
							<path class="st1" d="M148.64,311.95c-7.9,16.89-16.28,20.31-16.28,20.31s1.64-4.47,1.76-4.77c-1.1,1.39-4.91,4.79-4.91,4.79
								s1.15-5.01,1.29-5.76c-0.63,0.67-2.72,3.42-2.72,3.42s0.91-10.79,2.17-15.12c0.25-0.85,0.53-1.68,0.82-2.51
								c-0.94,2.25-1.79,4.52-2.48,6.82c-0.85,2.8-1.75,5.83-2.36,8.9c-0.61,3.04-0.94,6.11-0.68,9.03c0,0,0.43,4.82,0.43,4.82
								c0.55-0.4,1.09-0.83,1.62-1.25c11.53-9.26,21.65-20.99,23.35-36.04C150.22,307.09,149.72,309.64,148.64,311.95z"/>
						</g>
						<g class="st4">
							<path class="st1" d="M143.84,301.51c-2.52,4.27-5.26,8.31-7.44,12.79c-1.06,2.18-2.12,4.37-3.1,6.59
								c-0.98,2.23-1.76,4.52-2.85,6.71c-1.65,3.3-3.46,7.21-3.98,11.05c0.39-0.98,0.85-1.94,1.27-2.9c1.06-2.45,2.3-4.81,3.44-7.23
								c2.24-4.75,4.42-9.53,6.93-14.14c2.54-4.66,5.32-9.19,7.9-13.83c1.28-2.3,2.64-4.56,4.14-6.72
								c-0.03-0.09-0.04-0.19-0.08-0.28c-0.23-0.59-0.57-1.28-1.01-1.85C147.39,295,145.73,298.31,143.84,301.51z"/>
						</g>
					</g>
				</g>
			</g>
		</g>
	</g>
	<g>
		<path class="st5" d="M307.02,384.44H143.08V212.36c0-11.2,9.08-20.28,20.28-20.28h123.39c11.2,0,20.28,9.08,20.28,20.28V384.44z"
			/>
		<path class="st6" d="M299.1,375.14H151V219.7c0-10.12,8.2-18.32,18.32-18.32h111.46c10.12,0,18.32,8.2,18.32,18.32V375.14z"/>
	</g>
	<g>
		<g>
			<g>
				<g>
					<path class="st7" d="M52.56,324.19c-0.01,0.09,1.54-13.21,1.54-13.21s2.9-6.22,2.8-9.95c-0.05-2.05-2.14-2.89-3.76-1.5
						c-1.73,1.49-4.23,4.89-6.59,12.66l-3.93,16.37L52.56,324.19z"/>
					<path class="st7" d="M52.56,324.19c-0.01,0.09,1.54-13.21,1.54-13.21s2.9-6.22,2.8-9.95c-0.05-2.05-2.14-2.89-3.76-1.5
						c-1.73,1.49-4.23,4.89-6.59,12.66l-3.93,16.37L52.56,324.19z"/>
					<path class="st7" d="M155.14,342.37l4.84-8.19l-26.42-18.91c-18.74,6.91-38.99,12.07-60.49,15.79c0,0-13.23-10.34-20.36-9.13
						l-20.08,6.73c0,0,0.89,4.4,5.13,5.75c0,0,4.14,3.81,7.6,3.53c0,0,2.48,3.02,6.34,2.39c0,0,7.02,4.54,9.08,2.85l1.74,0.79
						C69.52,347.15,144.87,352.98,155.14,342.37z"/>
					<path class="st8" d="M63.03,335.04c-3.97-1.19-7.77-3.4-11.6-4.98c-4.07-1.67-8.08-2.93-12.15-3.63l13.43-4.5
						c5.57-0.95,14.87,5.16,18.67,7.88C71.12,333.6,66.68,336.14,63.03,335.04z"/>
					<path class="st7" d="M32.63,328.66l0.65-18.03c0.04-0.98,0.4-1.91,1.05-2.65l15.14-17.42c0.67-0.77,2-0.62,2.32,0.35
						c1.05,3.16-4.45,10.79-10.77,18.97c-1,1.29-1.57,2.85-1.65,4.48l-0.88,17.76"/>
					<path class="st9" d="M38.47,332.11l-0.98-0.58c0.02-0.49-0.01-1.01-0.12-1.55c-0.77-4.06-0.42-7.99-0.08-12.07
						c0.49-5.83,1.48-7.51,5.17-11.82c3.3-3.85,7.56-9.21,9.43-14.59c0.29,3.45-4.93,10.66-10.89,18.37c-1,1.29-1.57,2.85-1.65,4.48
						L38.47,332.11z"/>
					<path class="st7" d="M38.47,332.11l0.87-17.69c0.08-1.68,0.68-3.3,1.71-4.63l13.46-17.48c0.78-1.01,2.15-1.09,2.91-0.07
						c3.04,4.01-3.38,13.29-9.94,22.66l-1.57,19.48"/>
					<path class="st9" d="M44.28,333.88c0.23-6.08,0.19-12.27,0.71-18.33c4.2-4.9,10.55-12.01,13-19.03
						c-1,4.73-5.71,11.53-10.51,18.38l-1.57,19.48L44.28,333.88z"/>
					<path class="st7" d="M54.49,337.59l0.36-11.95c0.04-1.34,0.59-2.62,1.55-3.57l3.39-3.36c0.69-0.68,1.03-1.65,0.87-2.6
						c-0.18-1.05-0.86-2.24-2.92-2.65c-0.32-0.06-5.66,1.26-9.28,2.96c-2.01,0.94-3.26,3-3.15,5.22l0.63,12.76"/>
					<path class="st9" d="M52.5,324.34c1.71-3.64,4.87-5.53,8.14-7.37c-0.09,0.65-0.39,1.27-0.87,1.75l-3.39,3.36
						c-0.95,0.95-1.51,2.22-1.55,3.57l-0.36,11.95l0,0c-1.37-0.51-2.42-1.67-2.74-3.1C50.99,331.09,50.88,327.79,52.5,324.34z"/>
					<path class="st7" d="M61.97,337.16l0.05-9.17c0.01-1.58,1.55-2.71,3.06-2.22l0,0c0,0,2.42-5.95-2.4-7.67
						c-1.2-0.43-2.55-0.08-3.42,0.84l-2.99,3.16c-0.88,0.93-1.39,2.16-1.43,3.45l-0.36,12.04"/>
					<path class="st9" d="M64.3,324.62c0.35,0.18,0.69,0.31,1.03,0.42c-0.13,0.45-0.24,0.73-0.24,0.73
						c-1.51-0.48-3.05,0.64-3.06,2.22l-0.05,9.17l0,0c-1.05,0.06-1.95-0.75-2.01-1.8C59.7,330.51,59.72,322.29,64.3,324.62z"/>
				</g>
				<g>
					<g>
						<g>
							<path class="st10" d="M131.61,319.19c1.17,0.73,2.46,1.62,3.82,2.65c3.06,2.29,6.46,5.28,9.43,8.95
								c2.93,3.6,5.44,7.83,6.81,12.71c0.41-0.25,0.79-0.52,1.18-0.81c3.58-2.71,6.56-6.81,8.13-11.78l2.68-7.28l20.49-55.85
								l19.36-61.09c-1.75-0.03-7.57-1.28-14.8-0.31c-4.7,0.62-10.03,2.19-15.27,5.66c-6.79,4.52-13.43,12.25-18.33,25.31
								c-0.62,1.63-1.2,3.35-1.76,5.15c-0.14,0.46-0.28,0.91-0.41,1.37c-0.14,0.47-0.27,0.93-0.4,1.4
								c-0.14,0.48-0.26,0.96-0.39,1.44c-0.13,0.49-0.26,0.97-0.38,1.47l-16.26,57.26l-2.93,10.31l-0.6,2.08L131.61,319.19z"/>
						</g>
					</g>
					<g class="st11">
						<g>
							<path class="st10" d="M131.61,319.19c1.17,0.73,2.46,1.62,3.82,2.65c3.06,2.29,6.46,5.28,9.43,8.95
								c0.58-0.8,1.11-1.64,1.58-2.53c0.62-1.13,1.15-2.32,1.59-3.58c0.1-0.27,0.19-0.54,0.27-0.81l3.98-10.85l19.21-52.3
								l17.21-54.34c-4.7,0.62-10.03,2.19-15.27,5.66c-6.79,4.52-13.43,12.25-18.33,25.31c-0.62,1.63-1.2,3.35-1.76,5.15
								c-0.14,0.46-0.28,0.91-0.41,1.37c-0.14,0.47-0.27,0.93-0.4,1.4c-0.14,0.48-0.26,0.96-0.39,1.44
								c-0.13,0.49-0.26,0.97-0.38,1.47l-16.26,57.26l-2.93,10.31l-0.6,2.08L131.61,319.19z"/>
						</g>
					</g>
					<g>
						<g>
							<path class="st10" d="M126.49,316.27c0,0,2.1,0.98,5.12,2.92c1.17,0.73,2.46,1.62,3.82,2.65c3.06,2.29,6.46,5.28,9.43,8.95
								c2.93,3.6,5.44,7.83,6.81,12.71c0.26,0.94,0.49,1.9,0.67,2.89c9.28-2.64,12.46-20.5,12.31-21.16
								c-0.1-0.44-0.37-0.81-0.66-1.18c-0.11-0.14-0.22-0.29-0.34-0.43c-0.6-0.78-1.23-1.54-1.9-2.28
								c-1.04-1.19-2.16-2.33-3.33-3.43c-1.91-1.79-3.97-3.42-6.15-4.89c-3.54-2.44-7.41-4.44-11.47-5.95
								c-1.74-0.64-3.5-1.2-5.3-1.65c-1.13-0.3-2.28-0.55-3.42-0.77c-0.27-0.06-0.57-0.1-0.82,0.01c-0.27,0.13-0.42,0.41-0.53,0.67
								c-1.39,2.96-2.68,5.69-3.61,8.7c-0.15,0.46-0.29,0.93-0.42,1.41C126.64,315.72,126.57,315.99,126.49,316.27z"/>
						</g>
						<g class="st12">
							<path class="st10" d="M126.71,315.44c6.71,2.64,19.97,9.21,25.87,21.65c0.62,1.29,2.38,1.65,3.42,0.66
								c4.03-3.9,5.39-11.44,5.77-16.41c-1.04-1.19-2.16-2.33-3.33-3.43c-7.2-6.71-16.46-11.43-26.34-13.25
								c-0.27-0.06-0.57-0.1-0.82,0.01c-0.27,0.13-0.42,0.41-0.53,0.67c-1.38,2.96-2.68,5.69-3.61,8.7
								C126.98,314.49,126.84,314.96,126.71,315.44z"/>
						</g>
						<g class="st12">
							<path class="st10" d="M127.13,314.03c7.62,1.99,18.39,6.29,25.19,15.31c0.85,1.15,2.66,1.17,3.47-0.02
								c2.07-3.02,2.67-7.38,2.66-11.42c-7.2-6.71-16.46-11.43-26.34-13.25c-0.27-0.06-0.57-0.1-0.82,0.01
								c-0.27,0.13-0.42,0.41-0.53,0.67C129.36,308.29,128.07,311.02,127.13,314.03z"/>
						</g>
					</g>
					<g class="st11">
						<g>
							<path class="st10" d="M131.61,319.19c1.17,0.73,2.46,1.62,3.82,2.65c0.16-0.43,0.32-0.88,0.46-1.33l0.18-0.47l0.92-2.51
								l3.83-10.47l18.25-49.69l5.38-16.99c1.84-5.79-7.2-8.74-9.34-3.04c-0.62,1.63-1.2,3.35-1.76,5.15
								c-0.14,0.46-0.28,0.91-0.41,1.37c-0.14,0.47-0.27,0.93-0.4,1.4c-0.14,0.48-0.26,0.96-0.39,1.44
								c-0.13,0.49-0.26,0.97-0.38,1.47l-16.26,57.26l-2.93,10.31l-0.6,2.08L131.61,319.19z"/>
						</g>
					</g>
				</g>
			</g>
		</g>
		<g>
			<path class="st13" d="M290.3,204.45c-2.62,0.39-5.21-0.77-7.63-2.03c-1.62-0.85-3.33-1.85-4.23-3.7
				c-1.85-3.8,0.63-8.42,2.78-11.99c2.14-3.56,3.92-9.01,1.2-11.93c-1.65-1.78-4.2-1.58-6.08-2.98c-2.87-2.13-3.14-7.46-1.3-10.89
				c0.63-1.16,1.44-2.18,1.95-3.42c2.09-5.14-1.77-10.65-4.18-15.59c-2.64-5.41-3.65-11.97-2.8-18.18l-52.44-21.27
				c-4.75-6.29-12.37-8.66-19.31-7.35c-6.94,1.32-13.23,5.93-18.41,11.71c-5.32,5.94-9.85,14-9.39,22.77
				c0.34,6.41,3.3,12.96,1.37,18.94c-1.16,3.61-3.88,6.09-5.75,9.22c-2.89,4.84-3.68,11.24-2.82,17.13
				c0.86,5.89,3.23,11.32,6.15,16.14c1.36,2.25,2.9,4.52,3.27,7.28c0.55,4.12-2.03,8.36-5.37,9.29c-3.34,0.93-7.01-1.29-8.7-4.92
				c0.86,9.1,4.59,17.8,10.37,23.68c5.78,5.87,13.57,8.8,21.05,7.68c12.27-1.84,21.83-13.54,33.25-19.3
				c11.67-5.88,25.45-5.16,36.67,1.91c2.85,1.8,5.56,3.99,8.58,5.34c6.13,2.72,13.34,1.53,18.65-3.08
				c5.31-4.61,8.58-12.52,8.45-20.46C295.52,201.65,292.92,204.07,290.3,204.45z"/>
		</g>
		<g class="st12">
			<path class="st13" d="M271.91,205.99c-1.94,0.29-3.87-0.57-5.66-1.51c-1.21-0.63-2.47-1.37-3.13-2.75
				c-1.37-2.82,0.47-6.25,2.06-8.89c1.59-2.64,2.91-6.68,0.89-8.85c-1.22-1.32-3.12-1.17-4.51-2.21c-2.13-1.58-2.33-5.54-0.96-8.07
				c0.46-0.86,1.07-1.61,1.44-2.54c1.55-3.82-1.31-7.9-3.1-11.56c-1.96-4.02-2.71-8.88-2.08-13.49l-38.9-15.77
				c-3.52-4.67-9.18-6.43-14.33-5.45c-5.15,0.98-9.81,4.4-13.65,8.68c-3.95,4.41-7.31,10.39-6.96,16.89
				c0.25,4.76,2.45,9.61,1.02,14.05c-0.86,2.68-2.88,4.51-4.27,6.84c-2.14,3.59-2.73,8.34-2.09,12.71c0.64,4.37,2.4,8.4,4.56,11.97
				c1.01,1.67,2.15,3.35,2.42,5.4c0.41,3.05-1.5,6.2-3.98,6.89c-2.48,0.69-5.2-0.96-6.45-3.65c0.64,6.75,3.41,13.21,7.69,17.56
				c4.29,4.36,10.07,6.53,15.61,5.7c9.1-1.37,16.19-10.05,24.66-14.31c8.65-4.36,18.88-3.83,27.2,1.42
				c2.12,1.34,4.12,2.96,6.37,3.96c4.55,2.02,9.9,1.14,13.84-2.28c3.94-3.42,6.36-9.29,6.27-15.17
				C275.78,203.91,273.85,205.7,271.91,205.99z"/>
		</g>
		<ellipse class="st14" cx="224.49" cy="212.56" rx="38.43" ry="16.79"/>
		<g>
			<g>
				<g>
					<path class="st7" d="M396.95,324.19c0.01,0.09-1.54-13.21-1.54-13.21s-2.9-6.22-2.8-9.95c0.05-2.05,2.14-2.89,3.76-1.5
						c1.73,1.49,4.23,4.89,6.59,12.66l3.93,16.37L396.95,324.19z"/>
					<path class="st7" d="M396.95,324.19c0.01,0.09-1.54-13.21-1.54-13.21s-2.9-6.22-2.8-9.95c0.05-2.05,2.14-2.89,3.76-1.5
						c1.73,1.49,4.23,4.89,6.59,12.66l3.93,16.37L396.95,324.19z"/>
					<path class="st7" d="M294.37,342.37l-4.84-8.19l26.42-18.91c18.74,6.91,38.99,12.07,60.49,15.79c0,0,13.23-10.34,20.36-9.13
						l20.08,6.73c0,0-0.89,4.4-5.13,5.75c0,0-4.14,3.81-7.6,3.53c0,0-2.48,3.02-6.34,2.39c0,0-7.02,4.54-9.08,2.85l-1.74,0.79
						C379.99,347.15,304.64,352.98,294.37,342.37z"/>
					<path class="st8" d="M386.48,335.04c3.97-1.19,7.77-3.4,11.6-4.98c4.07-1.67,8.08-2.93,12.15-3.63l-13.43-4.5
						c-5.57-0.95-14.87,5.16-18.67,7.88C378.39,333.6,382.84,336.14,386.48,335.04z"/>
					<path class="st7" d="M416.88,328.66l-0.65-18.03c-0.04-0.98-0.4-1.91-1.05-2.65l-15.14-17.42c-0.67-0.77-1.99-0.62-2.32,0.35
						c-1.05,3.16,4.45,10.79,10.77,18.97c1,1.29,1.57,2.85,1.65,4.48l0.88,17.76"/>
					<path class="st9" d="M411.04,332.11l0.98-0.58c-0.02-0.49,0.01-1.01,0.12-1.55c0.77-4.06,0.42-7.99,0.08-12.07
						c-0.49-5.83-1.48-7.51-5.17-11.82c-3.3-3.85-7.56-9.21-9.43-14.59c-0.29,3.45,4.93,10.66,10.89,18.37
						c1,1.29,1.57,2.85,1.65,4.48L411.04,332.11z"/>
					<path class="st7" d="M411.04,332.11l-0.87-17.69c-0.08-1.68-0.68-3.3-1.71-4.63L395,292.31c-0.78-1.01-2.15-1.09-2.91-0.07
						c-3.04,4.01,3.38,13.29,9.94,22.66l1.57,19.48"/>
					<path class="st9" d="M405.23,333.88c-0.23-6.08-0.19-12.27-0.71-18.33c-4.2-4.9-10.55-12.01-13-19.03
						c1,4.73,5.71,11.53,10.51,18.38l1.57,19.48L405.23,333.88z"/>
					<path class="st7" d="M395.03,337.59l-0.36-11.95c-0.04-1.34-0.59-2.62-1.55-3.57l-3.39-3.36c-0.69-0.68-1.03-1.65-0.87-2.6
						c0.18-1.05,0.86-2.24,2.92-2.65c0.32-0.06,5.66,1.26,9.28,2.96c2.01,0.94,3.26,3,3.15,5.22l-0.63,12.76"/>
					<path class="st9" d="M397.01,324.34c-1.71-3.64-4.87-5.53-8.14-7.37c0.09,0.65,0.39,1.27,0.87,1.75l3.39,3.36
						c0.95,0.95,1.51,2.22,1.55,3.57l0.36,11.95l0,0c1.37-0.51,2.42-1.67,2.74-3.1C398.52,331.09,398.63,327.79,397.01,324.34z"/>
					<path class="st7" d="M387.54,337.16l-0.05-9.17c-0.01-1.58-1.55-2.71-3.06-2.22l0,0c0,0-2.42-5.95,2.4-7.67
						c1.2-0.43,2.55-0.08,3.42,0.84l2.99,3.16c0.88,0.93,1.39,2.16,1.43,3.45l0.36,12.04"/>
					<path class="st9" d="M385.22,324.62c-0.35,0.18-0.69,0.31-1.03,0.42c0.13,0.45,0.24,0.73,0.24,0.73
						c1.51-0.48,3.05,0.64,3.06,2.22l0.05,9.17l0,0c1.05,0.06,1.95-0.75,2.01-1.8C389.81,330.51,389.79,322.29,385.22,324.62z"/>
				</g>
				<g>
					<g>
						<g>
							<path class="st10" d="M317.9,319.19c-1.17,0.73-2.46,1.62-3.82,2.65c-3.06,2.29-6.46,5.28-9.43,8.95
								c-2.93,3.6-5.44,7.83-6.81,12.71c-0.41-0.25-0.79-0.52-1.18-0.81c-3.58-2.71-6.56-6.81-8.13-11.78l-2.68-7.28l-20.49-55.85
								l-19.36-61.09c1.75-0.03,7.57-1.28,14.8-0.31c4.7,0.62,10.03,2.19,15.27,5.66c6.79,4.52,13.43,12.25,18.33,25.31
								c0.62,1.63,1.2,3.35,1.76,5.15c0.14,0.46,0.28,0.91,0.41,1.37c0.14,0.47,0.27,0.93,0.4,1.4c0.14,0.48,0.26,0.96,0.39,1.44
								c0.13,0.49,0.26,0.97,0.38,1.47l16.26,57.26l2.93,10.31l0.6,2.08L317.9,319.19z"/>
						</g>
					</g>
					<g class="st11">
						<g>
							<path class="st10" d="M317.9,319.19c-1.17,0.73-2.46,1.62-3.82,2.65c-3.06,2.29-6.46,5.28-9.43,8.95
								c-0.58-0.8-1.11-1.64-1.58-2.53c-0.62-1.13-1.15-2.32-1.59-3.58c-0.1-0.27-0.19-0.54-0.27-0.81l-3.98-10.85l-19.21-52.3
								l-17.21-54.34c4.7,0.62,10.03,2.19,15.27,5.66c6.79,4.52,13.43,12.25,18.33,25.31c0.62,1.63,1.2,3.35,1.76,5.15
								c0.14,0.46,0.28,0.91,0.41,1.37c0.14,0.47,0.27,0.93,0.4,1.4c0.14,0.48,0.26,0.96,0.39,1.44c0.13,0.49,0.26,0.97,0.38,1.47
								l16.26,57.26l2.93,10.31l0.6,2.08L317.9,319.19z"/>
						</g>
					</g>
					<g>
						<g>
							<path class="st10" d="M323.02,316.27c0,0-2.1,0.98-5.12,2.92c-1.17,0.73-2.46,1.62-3.82,2.65c-3.06,2.29-6.46,5.28-9.43,8.95
								c-2.93,3.6-5.44,7.83-6.81,12.71c-0.26,0.94-0.49,1.9-0.67,2.89c-9.28-2.64-12.46-20.5-12.31-21.16
								c0.1-0.44,0.37-0.81,0.66-1.18c0.11-0.14,0.22-0.29,0.34-0.43c0.6-0.78,1.23-1.54,1.9-2.28c1.04-1.19,2.16-2.33,3.33-3.43
								c1.91-1.79,3.97-3.42,6.15-4.89c3.54-2.44,7.41-4.44,11.47-5.95c1.74-0.64,3.5-1.2,5.3-1.65c1.13-0.3,2.28-0.55,3.42-0.77
								c0.27-0.06,0.57-0.1,0.82,0.01c0.27,0.13,0.42,0.41,0.53,0.67c1.38,2.96,2.68,5.69,3.61,8.7c0.15,0.46,0.29,0.93,0.42,1.41
								C322.87,315.72,322.95,315.99,323.02,316.27z"/>
						</g>
						<g class="st12">
							<path class="st10" d="M322.8,315.44c-6.71,2.64-19.97,9.21-25.87,21.65c-0.61,1.29-2.38,1.65-3.42,0.66
								c-4.03-3.9-5.39-11.44-5.77-16.41c1.04-1.19,2.16-2.33,3.33-3.43c7.2-6.71,16.46-11.43,26.34-13.25
								c0.27-0.06,0.57-0.1,0.82,0.01c0.27,0.13,0.42,0.41,0.53,0.67c1.38,2.96,2.68,5.69,3.61,8.7
								C322.53,314.49,322.67,314.96,322.8,315.44z"/>
						</g>
						<g class="st12">
							<path class="st10" d="M322.38,314.03c-7.62,1.99-18.39,6.29-25.19,15.31c-0.85,1.15-2.66,1.17-3.47-0.02
								c-2.07-3.02-2.67-7.38-2.66-11.42c7.2-6.71,16.46-11.43,26.34-13.25c0.27-0.06,0.57-0.1,0.82,0.01
								c0.27,0.13,0.42,0.41,0.53,0.67C320.15,308.29,321.44,311.02,322.38,314.03z"/>
						</g>
					</g>
					<g class="st11">
						<g>
							<path class="st10" d="M317.9,319.19c-1.17,0.73-2.46,1.62-3.82,2.65c-0.16-0.43-0.32-0.88-0.46-1.33l-0.18-0.47l-0.92-2.51
								l-3.83-10.47l-18.25-49.69l-5.38-16.99c-1.84-5.79,7.2-8.74,9.34-3.04c0.62,1.63,1.2,3.35,1.76,5.15
								c0.14,0.46,0.28,0.91,0.41,1.37c0.14,0.47,0.27,0.93,0.4,1.4c0.14,0.48,0.26,0.96,0.39,1.44c0.13,0.49,0.26,0.97,0.38,1.47
								l16.26,57.26l2.93,10.31l0.6,2.08L317.9,319.19z"/>
						</g>
					</g>
				</g>
			</g>
		</g>
		<g>
			<rect x="208.28" y="158.3" class="st7" width="30.83" height="50.22"/>
			<path class="st15" d="M239.12,158.3v23.96c0,10.16-7.56,19.1-17.69,19.89c-0.55,0.04-1.11,0.07-1.67,0.07l-0.12,0
				c-6.27-0.02-11.35-5.11-11.35-11.38V158.3H239.12z"/>
			<g>
				<path class="st7" d="M267.84,148.3c-2.16,7.41-7.77,9.72-13.15,11.02c-0.15,0.04-0.28,0.06-0.43,0.1
					c-0.14,0.03-0.28,0.06-0.42,0.09c-0.87,1.56-1.85,3.12-2.9,4.62c-2.37,3.41-5.18,6.63-8.2,9.43c-0.44,0.47-0.91,0.92-1.38,1.37
					c-4.38,4.15-9.68,7.09-15.53,8.16c-0.19,0.04-0.38,0.06-0.57,0.1c-0.37,0.05-0.74,0.15-1.11,0.2c-0.25,0.04-0.52,0.01-0.77,0.04
					c-0.22,0.01-0.43,0.01-0.65,0.02c-0.49,0.01-0.99,0.03-1.49-0.01c-0.5-0.04-0.99-0.09-1.49-0.15c-0.22-0.04-0.43-0.07-0.63-0.1
					c-0.25-0.05-0.51-0.07-0.77-0.13c-0.36-0.09-0.72-0.22-1.09-0.32c-0.18-0.05-0.37-0.12-0.55-0.17
					c-5.16-1.56-9.71-4.6-13.41-8.61c-0.01,0-0.01,0-0.01-0.02c-0.81-0.87-1.58-1.79-2.29-2.75c-2.34-2.71-4.46-5.7-6.27-8.84
					c-0.75-1.31-1.45-2.63-2.08-3.96c-0.39-0.8-0.74-1.61-1.08-2.42c-0.21-0.07-0.41-0.15-0.62-0.22
					c-5.27-1.89-10.71-4.79-12.03-12.5c-1.08-6.32,1.09-14.46,6.31-14.61c1.55-0.05,3.28,0.63,4.96,1.75
					c2.87-10.3,8.99-21.09,16.19-28.33c3.06-3.63,6.46-5.92,10.1-7.2c1.98-0.83,3.95-1.35,5.91-1.41c1.34-0.04,2.66-0.02,3.97,0.07
					c1.31,0.07,2.62,0.18,3.95,0.38c1.93,0.27,3.84,1.02,5.71,2.07c3.47,1.69,6.59,4.33,9.21,8.28c6.34,8.02,11.2,19.43,12.89,29.98
					c1.79-0.92,3.57-1.4,5.12-1.18C268.4,133.82,269.63,142.14,267.84,148.3z"/>
				<g>
					<g class="st16">
						<path class="st7" d="M249.6,154.51c-0.21,3.8-3.46,6.7-7.26,6.49c-3.8-0.21-6.7-3.46-6.49-7.26c0.21-3.8,3.46-6.7,7.26-6.49
							C246.91,147.46,249.81,150.71,249.6,154.51z"/>
					</g>
					<g>
						<path class="st0" d="M241.15,149.29c0,0.28,0.19,0.54,0.43,0.68c0.24,0.15,0.53,0.2,0.81,0.21c0.33,0.02,0.68-0.01,0.97-0.17
							c0.73-0.4,0.52-1.29-0.18-1.58c-0.32-0.14-0.69-0.14-1.04-0.07c-0.24,0.05-0.48,0.13-0.67,0.29
							C241.29,148.81,241.15,149.04,241.15,149.29z"/>
						<path class="st0" d="M244.16,150.66c0,0.02,0,0.05,0,0.07c0.02,0.18,0.16,0.34,0.32,0.43c0.16,0.09,0.35,0.12,0.54,0.14
							c0.23,0.01,0.47-0.01,0.67-0.12c0.42-0.24,0.41-0.8,0-1.04c-0.17-0.1-0.37-0.13-0.57-0.13c-0.23,0-0.46,0.03-0.65,0.15
							C244.29,150.27,244.16,150.46,244.16,150.66z"/>
					</g>
				</g>
				<g>
					<path class="st13" d="M212.84,141.84c-0.1,1.31-0.98,2.72-2.43,2.7c-0.6-0.01-1.17-0.27-1.48-0.8
						c-0.44-0.77-0.27-1.73-0.12-2.56c0.07-0.43-0.27-0.89-0.74-0.74c-0.33,0.1-0.78-0.02-0.92-0.37c-0.12-0.3-0.4-0.52-0.74-0.42
						c-0.29,0.08-0.55,0.44-0.42,0.74c0.27,0.67,0.86,1.15,1.54,1.27c-0.12,0.94-0.11,1.91,0.39,2.74c0.51,0.85,1.43,1.3,2.4,1.35
						c2.18,0.1,3.57-1.92,3.73-3.91C214.12,141.06,212.91,141.07,212.84,141.84z"/>
					<path class="st13" d="M232.85,142.16c-0.15,1.31,0.43,2.86,1.86,3.12c0.59,0.11,1.2-0.03,1.6-0.49
						c0.58-0.67,0.6-1.65,0.62-2.48c0.01-0.44,0.44-0.82,0.88-0.58c0.3,0.16,0.77,0.13,0.97-0.19c0.18-0.27,0.5-0.43,0.81-0.27
						c0.27,0.13,0.45,0.54,0.27,0.81c-0.4,0.61-1.07,0.96-1.76,0.94c-0.07,0.95-0.26,1.89-0.92,2.62c-0.66,0.73-1.66,1-2.62,0.85
						c-2.16-0.33-3.13-2.58-2.9-4.56C231.75,141.15,232.94,141.39,232.85,142.16z"/>
				</g>
				<path class="st15" d="M183.58,141.94c0.57-0.3,1.16-0.11,1.52,0.4c0.01,0.01,0.07,0.09,0.1,0.13c0.02,0.03,0.06,0.07,0.07,0.08
					c0.1,0.11,0.2,0.23,0.3,0.33c0.12,0.12,0.24,0.23,0.36,0.34c0.04,0.03,0.08,0.06,0.11,0.09c0.02,0.02,0.06,0.05,0.09,0.07
					c0.24,0.18,0.5,0.33,0.76,0.48c0.12,0.06,0.24,0.12,0.36,0.17c0.03,0.02,0.09,0.04,0.11,0.05c0.08,0.03,0.16,0.06,0.24,0.09
					c0.28,0.1,0.58,0.18,0.87,0.24c0.07,0.01,0.13,0.02,0.2,0.04c0.02,0,0.03,0.01,0.05,0.01c0,0,0,0,0.01,0
					c0.15,0.01,0.3,0.03,0.45,0.04c0.28,0.01,0.56-0.01,0.84-0.03c-0.1-0.16-0.19-0.33-0.3-0.48c-0.06-0.08-0.11-0.16-0.17-0.24
					c-0.01-0.01-0.12-0.15-0.12-0.15c-0.1-0.12-0.2-0.24-0.3-0.36c-0.24-0.27-0.5-0.54-0.77-0.79c-0.13-0.12-0.27-0.24-0.41-0.36
					c-0.06-0.05-0.13-0.1-0.19-0.15c-0.02-0.02-0.07-0.05-0.1-0.07c-0.61-0.44-1.26-0.81-1.94-1.11c-0.53-0.23-0.7-1.06-0.4-1.52
					c0.36-0.55,0.95-0.65,1.52-0.4c3.07,1.34,5.44,4.14,6.35,7.36c0.16,0.56-0.19,1.23-0.78,1.37c-0.59,0.13-1.2-0.18-1.37-0.78
					c-0.02-0.08-0.06-0.16-0.08-0.24c-2.93,0.62-6.04-0.62-7.77-3.07C182.85,142.99,183.08,142.21,183.58,141.94z"/>
				<g>
					<path class="st17" d="M270.31,141.61c-0.18-0.01-0.05,0,0.03,0.01c0,0,0,0,0-0.01C270.33,141.61,270.32,141.61,270.31,141.61z"
						/>
					<path class="st17" d="M270.33,141.62c0,0,0.01,0,0.01,0C270.34,141.62,270.34,141.61,270.33,141.62
						C270.34,141.61,270.34,141.61,270.33,141.62C270.34,141.61,270.34,141.61,270.33,141.62
						C270.34,141.61,270.34,141.61,270.33,141.62c0-0.01-0.01-0.02-0.01-0.02C270.32,141.6,270.33,141.6,270.33,141.62
						c-0.02-0.01-0.03-0.02-0.04-0.02c0,0,0.01,0.01,0.02,0.01C270.32,141.61,270.32,141.61,270.33,141.62
						C270.33,141.61,270.33,141.61,270.33,141.62z"/>
					<path class="st17" d="M270.36,141.64c0-0.01-0.01-0.01-0.01-0.01c0,0-0.01,0-0.01,0C270.36,141.65,270.39,141.69,270.36,141.64
						z"/>
				</g>
				<path class="st15" d="M263.38,147.13c-0.57-0.3-1.16-0.11-1.52,0.4c-0.01,0.01-0.07,0.09-0.1,0.13
					c-0.02,0.03-0.06,0.07-0.07,0.08c-0.1,0.11-0.2,0.23-0.3,0.33c-0.12,0.12-0.24,0.23-0.36,0.34c-0.04,0.03-0.08,0.06-0.11,0.09
					c-0.02,0.02-0.06,0.05-0.09,0.07c-0.24,0.18-0.5,0.33-0.76,0.48c-0.12,0.06-0.24,0.12-0.35,0.17c-0.03,0.02-0.09,0.04-0.11,0.05
					c-0.08,0.03-0.16,0.06-0.24,0.09c-0.28,0.1-0.58,0.18-0.87,0.24c-0.07,0.01-0.13,0.02-0.2,0.04c-0.02,0-0.03,0.01-0.05,0.01
					c0,0,0,0-0.01,0c-0.15,0.01-0.3,0.03-0.45,0.04c-0.28,0.01-0.56-0.01-0.84-0.03c0.1-0.16,0.19-0.33,0.3-0.48
					c0.06-0.08,0.11-0.16,0.17-0.24c0.01-0.01,0.12-0.15,0.12-0.15c0.1-0.12,0.2-0.24,0.3-0.36c0.24-0.27,0.5-0.54,0.77-0.79
					c0.13-0.12,0.27-0.24,0.41-0.36c0.06-0.05,0.13-0.1,0.19-0.15c0.02-0.02,0.07-0.05,0.1-0.07c0.61-0.44,1.26-0.81,1.94-1.11
					c0.53-0.23,0.7-1.06,0.4-1.52c-0.36-0.55-0.95-0.65-1.52-0.4c-3.07,1.34-5.44,4.14-6.35,7.36c-0.16,0.56,0.19,1.23,0.78,1.37
					c0.59,0.13,1.2-0.18,1.37-0.78c0.02-0.08,0.06-0.16,0.08-0.24c2.93,0.62,6.04-0.62,7.77-3.07
					C264.11,148.18,263.88,147.4,263.38,147.13z"/>
				<g>
					<path class="st15" d="M213.16,153.89c0.45-0.99,1.25-1.8,1.91-2.65c0.76-0.97,1.41-2.02,1.97-3.1
						c1.14-2.19,1.82-4.53,2.13-6.94c0.08-0.66,0.87-1.07,1.46-0.97c0.7,0.13,0.98,0.77,0.89,1.42c-0.51,4.04-2.16,7.93-4.71,11.19
						c-0.98,1.25-2.4,2.6-1.1,4.06c1.3,1.46,3.62,1.16,5.41,1c1.56-0.14,1.64,2.29,0.08,2.43c-2.33,0.21-4.83,0.31-6.72-1.18
						C212.92,157.9,212.28,155.82,213.16,153.89z"/>
				</g>
				<g>
					<g class="st18">
						<path class="st7" d="M210.4,154.13c-0.21,3.8-3.46,6.71-7.26,6.49c-3.8-0.21-6.7-3.46-6.49-7.26c0.21-3.8,3.46-6.71,7.26-6.49
							C207.7,147.08,210.61,150.33,210.4,154.13z"/>
					</g>
				</g>
				<g>
					<path class="st0" d="M204.77,149.29c0,0.28-0.19,0.54-0.43,0.68c-0.24,0.15-0.53,0.2-0.81,0.21c-0.33,0.02-0.68-0.01-0.97-0.17
						c-0.73-0.4-0.52-1.29,0.18-1.58c0.32-0.14,0.69-0.14,1.04-0.07c0.24,0.05,0.48,0.13,0.67,0.29
						C204.63,148.81,204.77,149.04,204.77,149.29z"/>
					<path class="st0" d="M201.76,150.66c0,0.02,0,0.05,0,0.07c-0.02,0.18-0.16,0.34-0.32,0.43c-0.16,0.09-0.35,0.12-0.54,0.14
						c-0.23,0.01-0.47-0.01-0.67-0.12c-0.42-0.24-0.41-0.8,0-1.04c0.17-0.1,0.37-0.13,0.57-0.13c0.23,0,0.46,0.03,0.65,0.15
						C201.63,150.27,201.76,150.46,201.76,150.66z"/>
				</g>
				<g>
					<path class="st13" d="M212.86,128.66c-0.49-0.29-1.02-0.32-1.51-0.29c-3.26,0.19-5.85,2.81-6.58,6.45
						c0.23-0.49,0.51-0.94,0.89-1.27c0.02-0.02,0.05-0.03,0.07-0.04c0.21-0.23,0.44-0.43,0.69-0.59c0.93-0.58,2.06-0.75,3.18-0.86
						c1.12-0.12,2.26-0.2,3.26-0.64c0.48-0.21,0.97-0.6,0.96-1.26C213.8,129.56,213.35,128.94,212.86,128.66z"/>
				</g>
				<g>
					<path class="st13" d="M233.78,128.66c0.49-0.29,1.02-0.32,1.51-0.29c3.26,0.19,5.85,2.81,6.58,6.45
						c-0.23-0.49-0.51-0.94-0.89-1.27c-0.02-0.02-0.05-0.03-0.07-0.04c-0.21-0.23-0.44-0.43-0.69-0.59
						c-0.93-0.58-2.06-0.75-3.18-0.86c-1.12-0.12-2.26-0.2-3.26-0.64c-0.48-0.21-0.97-0.6-0.96-1.26
						C232.83,129.56,233.28,128.94,233.78,128.66z"/>
				</g>
				<g>
					<path class="st19" d="M232.12,165.25c-0.37,0.21-0.3,0.79-0.39,1.13c-0.12,0.46-0.39,0.86-0.66,1.25
						c-0.58,0.83-1.31,1.54-2.13,2.12c-1.92,1.36-4.5,2.06-6.83,1.66c-2.25-0.39-5.12-1.88-5.46-4.37c0.4-0.06,0.97,0.16,1.4,0.21
						c0.56,0.07,1.13,0.11,1.7,0.13c1.3,0.05,2.6,0,3.89-0.11c2.48-0.21,5.05-0.6,7.37-1.51
						C231.38,165.62,231.76,165.46,232.12,165.25z"/>
					<path class="st5" d="M233.99,162.64c-0.35,1.13-0.79,1.86-1.98,2.67c-0.01,0,1.01-0.53-0.34,0.18
						c-2.91,1.43-12.39,3.08-15.06,1.46c-0.79-0.48-2.08-1.21-2.74-1.99c0.2,0.23,1.27,0.29,1.58,0.35
						c0.49,0.09,0.99,0.15,1.49,0.15c1.63,0.01,3.2-0.65,4.75-1.13c1.73-0.53,3.47-0.63,5.27-0.49c1.26,0.1,2.51,0.55,3.76,0.26
						C231.88,163.83,232.96,163.18,233.99,162.64z"/>
				</g>
			</g>
		</g>
		<g>
			<path class="st20" d="M216.34,396.5c10.39-0.28,20.87-0.76,31.24-1.54c8.92-0.67,17.39-3.29,25.4-7.23
				c-0.13-0.26-0.26-0.53-0.35-0.82c-1.55-4.7-4.73-11.01-7.71-12.72h-92.09c-2.54,1.46-5.23,6.28-6.93,10.58
				C179.99,396.02,199.07,396.97,216.34,396.5z"/>
			<path class="st7" d="M307.23,413.11H144.48c0.38-0.82,0.76-1.62,1.15-2.41c0.33-0.69,0.67-1.37,1.02-2.04
				c0.47-0.96,0.97-1.91,1.47-2.84c0.31-0.6,0.63-1.2,0.96-1.79c1.17-2.16,2.38-4.25,3.59-6.26c0.4-0.66,0.81-1.31,1.21-1.96
				c1.22-1.96,2.45-3.84,3.68-5.65c0.4-0.6,0.82-1.2,1.23-1.78c0.4-0.59,0.82-1.17,1.22-1.73c0.41-0.58,0.82-1.13,1.22-1.69
				c0.82-1.1,1.62-2.17,2.43-3.22c0.36-0.45,0.71-0.91,1.05-1.35c0.45-0.55,0.89-1.11,1.33-1.65c0.39-0.49,0.78-0.96,1.17-1.43
				c1.16-1.4,2.3-2.72,3.39-3.96c0.37-0.42,0.73-0.83,1.09-1.22c0.36-0.4,0.71-0.78,1.07-1.17c0.69-0.75,1.37-1.47,2.02-2.16
				c0.31-0.32,0.6-0.65,0.89-0.97c0.49-0.55,0.94-1.12,1.37-1.71c0.26-0.32,0.5-0.65,0.71-0.97c0.24-0.33,0.46-0.66,0.66-1
				c0.37-0.57,0.71-1.15,1.03-1.74c0.13-0.24,0.26-0.49,0.38-0.72c0.15-0.29,0.3-0.6,0.44-0.89c0.14-0.31,0.28-0.61,0.4-0.92
				c0.14-0.29,0.26-0.59,0.38-0.89c0.13-0.33,0.25-0.67,0.37-1.01c0.09-0.29,0.19-0.58,0.27-0.87c0.18-0.52,0.32-1.05,0.45-1.57
				c0.09-0.38,0.19-0.77,0.26-1.14c0.06-0.25,0.11-0.5,0.14-0.74c0.05-0.24,0.08-0.48,0.13-0.71c0.02-0.19,0.05-0.37,0.07-0.57
				c0.04-0.23,0.06-0.44,0.08-0.67c0.02-0.2,0.05-0.4,0.06-0.6c0.04-0.34,0.06-0.69,0.07-1.03c0.01-0.06,0.01-0.11,0.01-0.17
				c0.02-0.45,0.04-0.91,0.04-1.36c0-1.46-0.11-2.92-0.33-4.38l-4.03-26.19l-0.78-5.13l-2.89-18.76
				c-10.61-13.93-8.54-27.3-4.27-36.75c3.72-8.3,9.13-13.58,9.13-13.58c0.39-1.32,0.79-2.66,1.2-4.02c0.97-3.2,2-6.48,3.03-9.69
				c0.64-2,1.29-3.99,1.92-5.91c0.13-0.38,0.25-0.76,0.38-1.13c0.15-0.49,0.31-0.96,0.47-1.44c0.28-0.88,0.57-1.74,0.86-2.59
				c0.71-2.14,1.4-4.19,2.04-6.08c0.24-0.69,0.46-1.35,0.69-1.99c0.21-0.63,0.43-1.26,0.63-1.85c0.14-0.38,0.26-0.76,0.39-1.12
				c0.46-1.34,0.89-2.54,1.24-3.59c0.32-0.91,0.59-1.69,0.83-2.33c0.37-1.06,0.62-1.77,0.71-2.03c0.04-0.08,0.05-0.12,0.05-0.12
				h54.7l0.09,0.23l2.92,7.04l1.09,2.59l0.98,2.37l1.37,3.31l1.27,3.03l1.12,2.71l1.49,3.6l2.11,5.07l6.63,15.93
				c5.53,5.81,9.03,11.27,11.08,16.29c0.01,0.01,0.02,0.02,0.01,0.05c0.89,2.14,1.5,4.19,1.89,6.16
				c3.22,15.79-7.29,25.85-7.29,25.85c-0.02,0.07-0.04,0.12-0.05,0.19c-0.06,0.18-0.09,0.36-0.14,0.55
				c-0.13,0.52-0.26,1.09-0.39,1.7c-0.06,0.31-0.12,0.62-0.19,0.94c-0.13,0.66-0.25,1.35-0.37,2.08c-0.07,0.36-0.13,0.74-0.19,1.12
				c-0.01,0.05-0.01,0.08-0.02,0.12c-0.06,0.34-0.11,0.69-0.17,1.05c-0.07,0.42-0.13,0.85-0.2,1.28c-0.09,0.68-0.2,1.38-0.3,2.11
				c-0.07,0.52-0.14,1.05-0.21,1.6c-0.11,0.82-0.22,1.65-0.32,2.51c-0.14,1.13-0.28,2.31-0.43,3.5c-0.2,1.71-0.39,3.48-0.58,5.26
				c-0.27,2.54-0.53,5.13-0.79,7.72c-0.07,0.74-0.14,1.48-0.21,2.22c-0.63,6.65-1.17,13.2-1.61,18.69
				c-0.09,1.18-0.12,2.36-0.06,3.53c0,0.22,0.01,0.43,0.04,0.65c0.01,0.23,0.02,0.44,0.06,0.67c0.01,0.22,0.02,0.42,0.06,0.63
				c0.09,0.83,0.22,1.65,0.39,2.48c0.04,0.14,0.06,0.27,0.09,0.41c0.08,0.41,0.19,0.82,0.3,1.21c0.12,0.49,0.26,0.96,0.41,1.43
				c0.3,0.94,0.64,1.86,1.04,2.76c0.18,0.41,0.36,0.8,0.56,1.2c0.05,0.09,0.08,0.17,0.13,0.26c0.2,0.41,0.41,0.8,0.64,1.2
				c0.01,0.01,0.01,0.03,0.02,0.05c0.24,0.41,0.47,0.8,0.72,1.2c0.2,0.33,0.41,0.66,0.65,0.99c0.14,0.22,0.28,0.43,0.44,0.65
				c0.02,0.02,0.04,0.06,0.06,0.08c0.22,0.32,0.46,0.62,0.7,0.93c0.2,0.27,0.41,0.53,0.64,0.79c0.71,0.87,1.48,1.7,2.31,2.5
				c1.01,0.97,1.99,1.96,2.95,2.94c0.44,0.44,0.86,0.88,1.28,1.32c0.5,0.51,0.97,1.02,1.44,1.53c0.54,0.59,1.08,1.17,1.6,1.76
				c0.59,0.66,1.18,1.32,1.75,1.98c0.54,0.63,1.09,1.27,1.62,1.9c0.54,0.66,1.09,1.31,1.62,1.97c0.52,0.66,1.05,1.31,1.56,1.97
				c0.01,0.01,0.01,0.02,0.02,0.02c0.39,0.5,0.77,1.01,1.15,1.51c1.15,1.51,2.25,3.02,3.32,4.56c0.47,0.68,0.95,1.37,1.41,2.06
				c0.94,1.37,1.84,2.76,2.69,4.17c0.49,0.79,0.97,1.59,1.43,2.38C303.04,404.55,305.25,408.78,307.23,413.11z"/>
			<path class="st10" d="M307.23,413.11H144.48c0.38-0.82,0.76-1.62,1.15-2.41c0.33-0.69,0.67-1.37,1.02-2.04
				c0.47-0.96,0.97-1.91,1.47-2.84c0.31-0.6,0.63-1.2,0.96-1.79c1.17-2.16,2.38-4.25,3.59-6.26c0.4-0.66,0.81-1.31,1.21-1.96
				c1.22-1.96,2.45-3.84,3.68-5.65c0.4-0.6,0.82-1.2,1.23-1.78c0.4-0.59,0.82-1.17,1.22-1.73c0.41-0.58,0.82-1.13,1.22-1.69
				c0.82-1.1,1.62-2.17,2.43-3.22c0.36-0.45,0.71-0.91,1.05-1.35c0.45-0.55,0.89-1.11,1.33-1.65c0.39-0.49,0.78-0.96,1.17-1.43
				c1.16-1.4,2.3-2.72,3.39-3.96c0.37-0.42,0.73-0.83,1.09-1.22c0.36-0.4,0.71-0.78,1.07-1.17c0.69-0.75,1.37-1.47,2.02-2.16
				c0.31-0.32,0.6-0.65,0.89-0.97c0.49-0.55,0.94-1.12,1.37-1.71c0.26-0.32,0.5-0.65,0.71-0.97c0.22-0.33,0.45-0.66,0.66-1
				c0.37-0.57,0.71-1.15,1.03-1.74c0.13-0.24,0.26-0.49,0.38-0.72c0.15-0.29,0.3-0.6,0.44-0.89c0.14-0.31,0.28-0.61,0.4-0.92
				c0.14-0.29,0.26-0.59,0.38-0.89c0.13-0.33,0.25-0.67,0.37-1.01c0.09-0.29,0.19-0.58,0.27-0.87c0.18-0.52,0.32-1.05,0.45-1.57
				c0.09-0.38,0.19-0.77,0.26-1.14c0.06-0.25,0.11-0.5,0.14-0.74c0.05-0.24,0.08-0.48,0.13-0.71c0.02-0.19,0.05-0.37,0.07-0.57
				c0.04-0.23,0.06-0.44,0.08-0.67c0.02-0.2,0.05-0.4,0.06-0.6c0.04-0.34,0.06-0.69,0.07-1.03c0.01-0.06,0.01-0.11,0.01-0.17
				c0.02-0.45,0.04-0.91,0.04-1.36c0-1.46-0.11-2.92-0.33-4.38l-4.03-26.19l-0.78-5.13l-2.89-18.76
				c-10.61-13.93-8.54-27.3-4.27-36.75c3.72-8.3,9.13-13.58,9.13-13.58c0.39-1.32,0.79-2.66,1.2-4.02c0.97-3.2,2-6.48,3.03-9.69
				c0.64-2,1.29-3.99,1.92-5.91c0.13-0.38,0.25-0.76,0.38-1.13c0.15-0.49,0.31-0.96,0.47-1.44c0.28-0.88,0.57-1.74,0.86-2.59
				c0.71-2.14,1.4-4.19,2.04-6.08c0.24-0.69,0.46-1.35,0.69-1.99c0.21-0.63,0.43-1.26,0.63-1.85c0.14-0.38,0.26-0.76,0.39-1.12
				c0.46-1.34,0.89-2.54,1.24-3.59c0.32-0.91,0.59-1.69,0.83-2.33c0.37-1.06,0.62-1.77,0.71-2.03c0.04-0.08,0.05-0.12,0.05-0.12
				h7.04c0.09,0.69-0.98,4.56-2.59,9.75c-0.13,0.46-0.28,0.93-0.43,1.4c-0.17,0.54-0.34,1.1-0.52,1.66
				c-0.01,0.05-0.02,0.09-0.04,0.14c-0.18,0.57-0.33,1.13-0.46,1.7c-0.06,0.25-0.12,0.51-0.17,0.76c-0.12,0.58-0.21,1.15-0.28,1.73
				c-0.01,0.14-0.04,0.28-0.04,0.42c-0.06,0.42-0.08,0.83-0.11,1.25c-0.01,0.24-0.02,0.48-0.02,0.71c-0.08,3.19,0.49,6.3,1.61,9.18
				c0.5,1.26,1.09,2.48,1.79,3.63c2.77,4.68,7.08,8.47,12.38,10.64c2.11,0.87,4.38,1.48,6.77,1.79c0.79,0.1,1.61,0.17,2.43,0.2h0.13
				c0.32,0.02,0.65,0.02,0.97,0.02h0.04c0.09,0,0.18,0,0.27-0.01c0.26,0.01,0.52,0,0.78-0.01h0.04c0.14,0,0.27-0.01,0.4-0.02
				c1.03-0.06,2.02-0.16,3.01-0.33c0.01,0,0.02,0,0.05-0.01c1.56-0.26,3.05-0.65,4.49-1.15h0.01c2.26-0.79,4.35-1.88,6.23-3.19
				c4.63-3.23,8.05-7.85,9.71-13.07c0.7-2.2,1.08-4.51,1.1-6.87c0.01-0.54,0-1.1-0.05-1.65c-0.02-0.57-0.08-1.13-0.17-1.7
				c-0.07-0.59-0.17-1.19-0.31-1.78c0-0.08-0.01-0.15-0.04-0.21c-0.12-0.53-0.25-1.08-0.4-1.61c-0.17-0.57-0.36-1.12-0.57-1.69
				c-0.06-0.18-0.13-0.35-0.2-0.53c-0.41-1.05-0.82-2.06-1.2-3.01c-1.8-4.53-3.08-7.73-3.26-8.14h6.29l0.09,0.23l2.92,7.04
				l1.09,2.59l0.98,2.37l1.37,3.31l1.27,3.03l1.12,2.71l1.49,3.6l2.11,5.07l6.63,15.93c5.53,5.81,9.03,11.27,11.08,16.29
				c0.01,0.01,0.02,0.02,0.01,0.05c0.89,2.14,1.5,4.19,1.89,6.16c3.22,15.79-7.29,25.85-7.29,25.85c-0.02,0.07-0.04,0.12-0.05,0.19
				c-0.06,0.18-0.09,0.36-0.14,0.55c-0.13,0.52-0.26,1.09-0.39,1.7c-0.06,0.31-0.12,0.62-0.19,0.94c-0.13,0.66-0.25,1.35-0.37,2.08
				c-0.07,0.36-0.13,0.74-0.19,1.12c-0.01,0.05-0.01,0.08-0.02,0.12c-0.06,0.34-0.11,0.69-0.17,1.05c-0.07,0.42-0.13,0.85-0.2,1.28
				c-0.09,0.68-0.19,1.38-0.3,2.11c-0.07,0.52-0.14,1.05-0.21,1.6c-0.11,0.82-0.22,1.65-0.32,2.51c-0.14,1.13-0.28,2.31-0.43,3.5
				c-0.2,1.71-0.39,3.48-0.58,5.26c-0.27,2.54-0.53,5.13-0.79,7.72c-0.07,0.74-0.14,1.48-0.21,2.22c-0.63,6.65-1.17,13.2-1.61,18.69
				c-0.09,1.18-0.12,2.36-0.06,3.53c0,0.22,0.01,0.43,0.04,0.65c0.01,0.23,0.02,0.44,0.06,0.67c0.01,0.22,0.02,0.42,0.06,0.63
				c0.09,0.83,0.22,1.65,0.39,2.48c0.04,0.14,0.06,0.27,0.09,0.41c0.08,0.41,0.18,0.82,0.3,1.21c0.12,0.49,0.26,0.96,0.41,1.43
				c0.3,0.94,0.64,1.86,1.04,2.76c0.18,0.41,0.36,0.8,0.56,1.2c0.05,0.09,0.08,0.17,0.13,0.26c0.2,0.41,0.41,0.8,0.64,1.2
				c0.01,0.01,0.01,0.03,0.02,0.05c0.22,0.41,0.46,0.8,0.72,1.2c0.2,0.33,0.41,0.66,0.65,0.99c0.14,0.22,0.28,0.43,0.44,0.65
				c0.02,0.02,0.04,0.06,0.06,0.08c0.22,0.32,0.46,0.62,0.7,0.93c0.2,0.27,0.41,0.53,0.64,0.79c0.71,0.87,1.48,1.7,2.31,2.5
				c1.01,0.97,1.99,1.96,2.95,2.94c0.44,0.44,0.86,0.88,1.28,1.32c0.5,0.51,0.97,1.02,1.44,1.53c0.54,0.59,1.08,1.17,1.6,1.76
				c0.59,0.66,1.18,1.32,1.75,1.98c0.54,0.63,1.09,1.27,1.62,1.9c0.54,0.66,1.09,1.31,1.62,1.97c0.52,0.66,1.05,1.31,1.56,1.97
				c0.01,0.01,0.01,0.02,0.02,0.02c0.39,0.5,0.77,1.01,1.15,1.51c1.14,1.51,2.24,3.02,3.32,4.56c0.47,0.68,0.95,1.37,1.41,2.06
				c0.92,1.38,1.81,2.77,2.69,4.17c0.49,0.79,0.97,1.59,1.43,2.38C303.04,404.55,305.25,408.78,307.23,413.11z"/>
			<path class="st21" d="M297.76,413.11h-143.5c0.34-0.82,0.67-1.62,1.02-2.41c0.3-0.69,0.59-1.37,0.9-2.04
				c0.41-0.96,0.85-1.91,1.29-2.84c0.27-0.6,0.56-1.2,0.85-1.79c1.03-2.16,2.1-4.25,3.16-6.26c0.36-0.66,0.71-1.31,1.07-1.96
				c1.08-1.96,2.15-3.84,3.24-5.65c0.36-0.6,0.72-1.2,1.09-1.78c0.36-0.59,0.71-1.17,1.07-1.73c0.37-0.58,0.72-1.13,1.08-1.69
				c0.72-1.1,1.43-2.17,2.14-3.22c0.32-0.45,0.63-0.91,0.94-1.35c0.39-0.55,0.78-1.11,1.16-1.65c0.34-0.49,0.7-0.96,1.04-1.43
				c1.02-1.4,2.02-2.72,2.98-3.96c0.32-0.42,0.65-0.83,0.96-1.22c0.31-0.4,0.63-0.78,0.94-1.17c0.6-0.75,1.22-1.47,1.79-2.16
				c0.27-0.32,0.53-0.65,0.78-0.97c0.43-0.55,0.83-1.12,1.22-1.71c0.21-0.32,0.41-0.65,0.62-0.97c0.2-0.33,0.4-0.66,0.59-1
				c0.32-0.57,0.63-1.15,0.91-1.74c0.11-0.24,0.23-0.49,0.33-0.72c0.13-0.29,0.26-0.6,0.38-0.89c0.13-0.31,0.26-0.61,0.36-0.92
				c0.13-0.29,0.24-0.59,0.34-0.89c0.11-0.33,0.21-0.67,0.32-1.01c0.08-0.29,0.17-0.58,0.24-0.87c0.17-0.52,0.28-1.05,0.4-1.57
				c0.08-0.38,0.17-0.77,0.23-1.14c0.06-0.25,0.09-0.5,0.13-0.74c0.04-0.24,0.07-0.48,0.11-0.71c0.02-0.19,0.05-0.37,0.07-0.57
				c0.02-0.23,0.05-0.44,0.07-0.67c0.02-0.2,0.04-0.4,0.05-0.6c0.04-0.34,0.06-0.69,0.07-1.03v-0.17c0.02-0.45,0.04-0.91,0.04-1.36
				c0-1.46-0.09-2.92-0.3-4.38l-3.66-27.05l-0.58-4.27l-2.55-18.76c-11.64-17.32-5.97-33.79-0.83-42.92c2.63-4.65,5.11-7.4,5.11-7.4
				c0.7-2.69,1.44-5.47,2.21-8.27c0.02-0.09,0.05-0.18,0.07-0.27c0.5-1.8,1.01-3.61,1.5-5.4c0.47-1.69,0.96-3.35,1.43-4.98
				c0.34-1.22,0.7-2.42,1.04-3.6v-0.01c0.23-0.74,0.44-1.47,0.64-2.19c0.22-0.72,0.44-1.45,0.64-2.15c0.01-0.02,0.01-0.05,0.02-0.07
				c0.13-0.43,0.25-0.85,0.38-1.27c0.25-0.87,0.51-1.71,0.76-2.52c0.22-0.76,0.44-1.48,0.65-2.19c0.26-0.86,0.51-1.68,0.73-2.45
				c0.49-1.56,0.91-2.96,1.28-4.14c0.85-2.76,1.36-4.39,1.36-4.39h3.14c0.09,0.69-0.98,4.56-2.59,9.75
				c-0.13,0.46-0.28,0.93-0.43,1.4c-0.17,0.54-0.34,1.1-0.52,1.66c-0.01,0.05-0.02,0.09-0.04,0.14c-0.18,0.57-0.33,1.13-0.46,1.7
				c-0.06,0.25-0.12,0.51-0.17,0.76c-0.12,0.58-0.21,1.15-0.28,1.73c-0.01,0.14-0.04,0.28-0.04,0.42c-0.06,0.42-0.08,0.83-0.11,1.25
				c-0.01,0.24-0.02,0.48-0.02,0.71c-0.08,3.19,0.49,6.3,1.61,9.18c0.5,1.26,1.09,2.48,1.79,3.63c2.77,4.68,7.08,8.47,12.38,10.64
				c2.11,0.87,4.38,1.48,6.77,1.79c0-0.06,0.01-0.11,0.01-0.16c0.78,0.15,1.57,0.26,2.38,0.31c0.07,0.02,0.13,0.02,0.2,0.02
				c0.41,0.03,0.83,0.05,1.24,0.05c0.08,0.01,0.15,0.01,0.24,0.01h0.02c0.18,0,0.36,0,0.52-0.02h0.04c0.04,0.01,0.08,0.01,0.13,0
				c0.02,0.01,0.06,0.01,0.09,0h0.18c1.03-0.05,2.04-0.16,3.01-0.35c0.01,0,0.02,0,0.05-0.01c1.56-0.26,3.05-0.65,4.49-1.15h0.01
				c2.26-0.79,4.35-1.88,6.23-3.19c4.63-3.23,8.05-7.85,9.71-13.07c0.7-2.2,1.08-4.51,1.1-6.87c0.01-0.54,0-1.1-0.05-1.65
				c-0.02-0.57-0.08-1.13-0.17-1.7c-0.07-0.59-0.17-1.19-0.31-1.78c0-0.08-0.01-0.15-0.04-0.21c-0.12-0.53-0.25-1.08-0.4-1.61
				c-0.17-0.57-0.36-1.12-0.57-1.69c-0.06-0.18-0.13-0.35-0.2-0.53c-0.41-1.05-0.82-2.06-1.2-3.01c-1.8-4.53-3.08-7.73-3.26-8.14
				h3.73l3.48,9.51l0.78,2.12l0.54,1.49l0.18,0.49l1.22,3.31l0.32,0.87l0.53,1.45l0.86,2.37l0.99,2.72l1.61,4.38l1.76,4.82
				l4.53,12.35c16.22,19.27,12.59,34.83,8.68,42.71c-1.8,3.63-3.65,5.64-3.65,5.64c-0.07,0.24-0.12,0.49-0.17,0.75
				c-0.12,0.52-0.24,1.09-0.35,1.7c-0.05,0.31-0.09,0.62-0.17,0.94c-0.11,0.66-0.21,1.35-0.32,2.08c-0.06,0.36-0.12,0.74-0.17,1.12
				c-0.01,0.05-0.01,0.08-0.02,0.12c-0.05,0.34-0.09,0.69-0.14,1.05c-0.07,0.42-0.12,0.85-0.18,1.28c-0.08,0.68-0.17,1.38-0.26,2.11
				c-0.07,0.52-0.13,1.05-0.19,1.6c-0.09,0.82-0.2,1.65-0.28,2.51c-0.13,1.13-0.25,2.31-0.38,3.5c-0.15,1.51-0.31,3.05-0.45,4.61
				c-0.26,2.74-0.51,5.56-0.76,8.38c-0.06,0.74-0.13,1.48-0.19,2.22c-0.56,6.65-1.03,13.2-1.42,18.69
				c-0.08,1.18-0.11,2.36-0.05,3.53c0,0.22,0.01,0.43,0.02,0.65c0.01,0.23,0.02,0.44,0.06,0.67c0.01,0.22,0.02,0.42,0.05,0.63
				c0.08,0.83,0.2,1.65,0.34,2.48c0.04,0.14,0.06,0.27,0.08,0.41c0.08,0.41,0.17,0.82,0.26,1.21c0.11,0.49,0.24,0.96,0.37,1.43
				c0.26,0.94,0.57,1.86,0.92,2.76c0.15,0.41,0.31,0.8,0.49,1.2c0.05,0.09,0.08,0.17,0.12,0.26c0.18,0.41,0.37,0.8,0.57,1.2
				c0.01,0.01,0.01,0.03,0.01,0.05c0.2,0.41,0.41,0.8,0.64,1.2c0.18,0.33,0.37,0.66,0.58,0.99c0.12,0.22,0.25,0.43,0.38,0.65
				c0.02,0.02,0.04,0.06,0.06,0.08c0.19,0.32,0.4,0.62,0.62,0.93c0.18,0.27,0.37,0.53,0.56,0.79c0.63,0.87,1.31,1.7,2.04,2.5
				c0.89,0.97,1.75,1.96,2.6,2.94c0.39,0.44,0.76,0.88,1.12,1.32c0.44,0.51,0.85,1.02,1.28,1.53c0.47,0.59,0.95,1.17,1.41,1.76
				c0.52,0.66,1.04,1.32,1.54,1.98c0.49,0.63,0.96,1.27,1.43,1.9c0.49,0.66,0.96,1.31,1.43,1.97c0.46,0.66,0.92,1.31,1.37,1.97
				c0.01,0.01,0.01,0.02,0.02,0.02c1.37,2,2.68,4.02,3.94,6.07c0.41,0.68,0.83,1.37,1.23,2.06c0.82,1.38,1.6,2.77,2.38,4.17
				C293.34,402.93,295.7,407.94,297.76,413.11z"/>
			<path class="st21" d="M276.85,413.11H175.92c0.24-0.82,0.47-1.62,0.71-2.41c0.21-0.69,0.43-1.37,0.64-2.04
				c0.28-0.96,0.6-1.91,0.91-2.84c0.19-0.6,0.38-1.2,0.59-1.79c0.72-2.16,1.47-4.25,2.23-6.26c0.25-0.66,0.5-1.31,0.75-1.96
				c0.76-1.96,1.52-3.84,2.29-5.65c0.25-0.6,0.51-1.2,0.76-1.78c0.25-0.59,0.51-1.17,0.76-1.73c0.26-0.58,0.51-1.13,0.76-1.69
				c0.51-1.1,1.01-2.17,1.5-3.22c0.23-0.45,0.45-0.91,0.66-1.35c0.27-0.55,0.54-1.11,0.82-1.65c0.24-0.49,0.49-0.96,0.72-1.43
				c0.72-1.4,1.43-2.72,2.11-3.96c0.22-0.42,0.45-0.83,0.67-1.22c0.21-0.4,0.44-0.78,0.66-1.17c0.43-0.75,0.85-1.47,1.26-2.16
				c0.19-0.32,0.37-0.65,0.54-0.97c0.31-0.55,0.58-1.12,0.85-1.71c0.15-0.32,0.3-0.65,0.44-0.97c0.14-0.33,0.28-0.66,0.41-1
				c0.23-0.57,0.44-1.15,0.64-1.74c0.08-0.24,0.17-0.49,0.24-0.72c0.09-0.29,0.18-0.6,0.27-0.89c0.08-0.31,0.18-0.61,0.25-0.92
				c0.08-0.29,0.17-0.59,0.24-0.89c0.08-0.33,0.15-0.67,0.23-1.01c0.06-0.29,0.12-0.58,0.17-0.87c0.12-0.52,0.2-1.05,0.28-1.57
				c0.06-0.38,0.12-0.77,0.17-1.14c0.04-0.25,0.06-0.5,0.08-0.74c0.02-0.24,0.05-0.48,0.08-0.71c0.01-0.19,0.02-0.37,0.05-0.57
				c0.01-0.23,0.04-0.44,0.05-0.67c0.01-0.2,0.02-0.4,0.04-0.6c0.02-0.34,0.04-0.69,0.05-1.03v-0.17c0.02-0.45,0.02-0.91,0.02-1.36
				c0-1.46-0.06-2.92-0.2-4.38l-2.89-30.33l-0.09-0.99l-1.79-18.76c-9.97-21.09-1.89-40.91,1.6-47.78c0.84-1.64,1.41-2.55,1.41-2.55
				c0.02-0.15,0.05-0.28,0.08-0.43c0.22-1.22,0.45-2.47,0.69-3.71c0.36-1.88,0.71-3.77,1.08-5.66c0,0,0,0,0-0.01
				c0.12-0.59,0.23-1.17,0.34-1.74c2.77,4.68,7.08,8.47,12.38,10.64c2.11,0.87,4.38,1.48,6.77,1.79c0-0.06,0.01-0.11,0.01-0.16
				l2.2-0.06c0.17,0.06,0.34,0.1,0.52,0.15c0.62,0.14,1.24,0.24,1.88,0.27h0.04c0.04,0.01,0.08,0.01,0.13,0
				c0.02,0.01,0.06,0.01,0.09,0c0.06,0.01,0.12,0.02,0.18,0.01c0.07,0.01,0.14,0.01,0.21,0.01h0.01c0.95,0,1.88-0.12,2.78-0.37
				c0.01,0,0.02,0,0.05-0.01c1.56-0.26,3.05-0.65,4.49-1.15h0.01c2.26-0.79,4.35-1.88,6.23-3.19c4.63-3.23,8.05-7.85,9.71-13.07
				l1.86,7.22l0.97,3.76l1.04,4.02l0.95,3.68c16.65,28.14,3.53,48.35,3.53,48.35c-0.04,0.24-0.07,0.49-0.11,0.75
				c-0.08,0.52-0.17,1.09-0.25,1.7c-0.04,0.31-0.07,0.62-0.12,0.94c-0.08,0.66-0.15,1.35-0.23,2.08c-0.05,0.36-0.08,0.74-0.12,1.12
				c-0.01,0.05-0.01,0.08-0.01,0.12c-0.04,0.34-0.07,0.69-0.11,1.05c-0.05,0.42-0.08,0.85-0.12,1.28c-0.06,0.68-0.12,1.38-0.19,2.11
				c-0.05,0.52-0.08,1.05-0.13,1.6c-0.07,0.82-0.14,1.65-0.2,2.51c-0.08,1.13-0.18,2.31-0.26,3.5c-0.05,0.67-0.09,1.34-0.15,2.02
				c-0.24,3.54-0.47,7.26-0.7,10.97c-0.05,0.74-0.09,1.48-0.13,2.22c-0.39,6.65-0.73,13.2-1.01,18.69
				c-0.06,1.18-0.07,2.36-0.04,3.53c0,0.22,0.01,0.43,0.02,0.65c0.01,0.23,0.01,0.44,0.04,0.67c0.01,0.22,0.01,0.42,0.04,0.63
				c0.06,0.83,0.14,1.65,0.25,2.48c0.02,0.14,0.04,0.27,0.06,0.41c0.05,0.41,0.11,0.82,0.18,1.21c0.07,0.49,0.17,0.96,0.26,1.43
				c0.18,0.94,0.39,1.86,0.65,2.76c0.11,0.41,0.21,0.8,0.34,1.2c0.02,0.09,0.05,0.17,0.08,0.26c0.12,0.41,0.25,0.8,0.39,1.2
				c0.01,0.01,0.01,0.03,0.01,0.05c0.14,0.41,0.28,0.8,0.45,1.2c0.13,0.33,0.26,0.66,0.4,0.99c0.09,0.22,0.18,0.43,0.27,0.65
				c0.01,0.02,0.02,0.06,0.04,0.08c0.14,0.32,0.28,0.62,0.44,0.93c0.12,0.27,0.26,0.53,0.39,0.79c0.45,0.87,0.92,1.7,1.43,2.5
				c0.63,0.97,1.23,1.96,1.84,2.94c0.27,0.44,0.53,0.88,0.79,1.32c0.31,0.51,0.6,1.02,0.89,1.53c0.34,0.59,0.67,1.17,0.99,1.76
				c0.37,0.66,0.73,1.32,1.09,1.98c0.33,0.63,0.67,1.27,1.01,1.9c0.33,0.66,0.67,1.31,1.01,1.97c0.32,0.66,0.65,1.31,0.97,1.97
				c0,0.01,0,0.02,0.01,0.02c0.96,2,1.88,4.02,2.77,6.07c0.3,0.68,0.58,1.37,0.88,2.06c0.57,1.38,1.11,2.77,1.66,4.17
				C273.73,402.93,275.4,407.94,276.85,413.11z"/>
			<path class="st10" d="M226.49,413.11h-9.27c0.02-0.82,0.05-1.62,0.07-2.41c0.01-0.69,0.04-1.37,0.06-2.04
				c0.02-0.96,0.05-1.91,0.08-2.84c0.01-0.6,0.04-1.2,0.05-1.79c0.07-2.16,0.14-4.25,0.21-6.26c0.02-0.66,0.05-1.31,0.07-1.96
				c0.06-1.96,0.13-3.84,0.2-5.65c0.02-0.6,0.05-1.2,0.07-1.78c0.02-0.59,0.05-1.17,0.07-1.73c0.02-0.58,0.05-1.13,0.07-1.69
				c0.05-1.1,0.09-2.17,0.14-3.22c0.01-0.45,0.04-0.91,0.06-1.35c0.02-0.55,0.05-1.11,0.07-1.65c0.02-0.49,0.05-0.96,0.07-1.43
				c0.06-1.4,0.13-2.72,0.19-3.96c0.02-0.42,0.05-0.83,0.06-1.22c0.02-0.4,0.05-0.78,0.06-1.17c0.05-0.75,0.08-1.47,0.12-2.16
				c0.02-0.32,0.04-0.65,0.05-0.97c0.04-0.55,0.06-1.12,0.08-1.71c0.01-0.32,0.02-0.65,0.04-0.97c0.01-0.33,0.04-0.66,0.05-1
				c0.01-0.57,0.04-1.15,0.06-1.74c0-0.24,0.01-0.49,0.01-0.72c0.01-0.29,0.02-0.6,0.02-0.89c0.01-0.31,0.02-0.61,0.02-0.92
				c0.01-0.29,0.02-0.59,0.02-0.89c0.01-0.33,0.01-0.67,0.02-1.01c0-0.29,0.01-0.58,0.01-0.87c0.01-0.52,0.02-1.05,0.02-1.57
				c0.01-0.38,0.01-0.77,0.02-1.14v-0.74c0.01-0.24,0.01-0.48,0.01-0.71v-0.57c0.01-0.23,0.01-0.44,0.01-0.67v-1.8
				c0.01-0.45,0.01-0.91,0.01-1.36c0-1.46-0.01-2.92-0.02-4.38l-0.27-31.32l-0.07-8.27l-0.09-10.5c-0.44-10.11-0.5-19.93-0.4-28.16
				c0-0.12,0-0.25,0.01-0.37v-0.38c0-0.38,0.01-0.77,0.01-1.14c0.02-1.6,0.05-3.12,0.08-4.57v-0.01c0.17-7.4,0.41-12.79,0.52-14.81
				c0-0.06,0.01-0.11,0.01-0.16l2.2-0.06c0.06,0.17,0.11,0.29,0.18,0.36c0,0.02,0.02,0.05,0.04,0.06c0.02,0.01,0.05,0.02,0.07,0.02
				c0.02,0,0.04-0.01,0.06-0.02c0.01,0,0.02-0.01,0.04-0.03c0.05-0.05,0.09-0.12,0.14-0.24c0.62,0.14,1.24,0.24,1.88,0.27h0.04
				c0.14,0,0.27-0.01,0.4-0.02v0.03l0.02,0.89c0.26,4.76,0.44,9.28,0.56,13.52c0.04,1.39,0.07,2.76,0.11,4.1
				c0.01,0.7,0.02,1.39,0.04,2.07v0.37c0.28,17.19-0.38,28.28-0.38,28.28c0,0.24,0,0.49-0.01,0.75c0,0.52-0.01,1.09-0.02,1.7v0.94
				c-0.01,0.66-0.02,1.35-0.02,2.08c-0.01,0.36-0.01,0.74-0.01,1.12v0.12c-0.01,0.34-0.01,0.69-0.01,1.05v0.25
				c0,0.34-0.01,0.68-0.01,1.03c0,0.68-0.01,1.38-0.01,2.11c-0.01,0.52-0.01,1.05-0.01,1.6c-0.01,0.82-0.02,1.65-0.02,2.51
				c-0.01,1.13-0.01,2.31-0.02,3.5c-0.02,4.13-0.06,8.56-0.08,12.99c0,0.74,0,1.48-0.01,2.22c-0.04,6.65-0.06,13.2-0.08,18.69
				c-0.01,1.18-0.01,2.36-0.01,3.53v0.65c0,0.23,0.01,0.44,0.01,0.67v0.63c0,0.83,0.01,1.65,0.02,2.48v0.41
				c0.01,0.41,0.01,0.82,0.02,1.21c0,0.49,0.01,0.96,0.02,1.43c0.01,0.94,0.04,1.86,0.06,2.76c0.01,0.41,0.01,0.8,0.02,1.2
				c0.01,0.09,0.01,0.17,0.01,0.26c0.01,0.41,0.02,0.8,0.04,1.2v0.05c0.01,0.41,0.02,0.8,0.05,1.2c0.01,0.33,0.02,0.66,0.04,0.99
				c0.01,0.22,0.01,0.43,0.02,0.65v0.08c0.01,0.32,0.02,0.62,0.05,0.93c0.01,0.27,0.02,0.53,0.04,0.79c0.04,0.87,0.08,1.7,0.13,2.5
				c0.06,0.97,0.11,1.96,0.17,2.94c0.02,0.44,0.05,0.88,0.07,1.32c0.04,0.51,0.06,1.02,0.08,1.53c0.04,0.59,0.06,1.17,0.09,1.76
				c0.04,0.66,0.06,1.32,0.09,1.98c0.04,0.63,0.06,1.27,0.09,1.9c0.04,0.66,0.06,1.31,0.09,1.97c0.02,0.66,0.06,1.31,0.08,1.97
				c0,0.01,0,0.02,0,0.02c0.09,2,0.18,4.02,0.26,6.07c0.02,0.68,0.06,1.37,0.08,2.06c0.05,1.38,0.09,2.77,0.15,4.17
				C226.22,402.93,226.36,407.94,226.49,413.11z"/>
			<g>
				<g>
					<g>
						<path class="st14" d="M236.79,269.16c0.17,0.44,0.23,0.89,0.2,1.33c-0.08,1.28-0.94,2.46-2.29,2.93
							c-1.81,0.62-3.8-0.27-4.45-2c-0.12-0.33-0.19-0.67-0.2-1c-0.06-1.41,0.83-2.75,2.3-3.25
							C234.15,266.53,236.14,267.43,236.79,269.16z"/>
						<path class="st22" d="M236.39,268.94c0.14,0.38,0.2,0.78,0.17,1.16c-0.07,1.12-0.82,2.14-1.99,2.55
							c-1.57,0.54-3.31-0.24-3.87-1.74c-0.11-0.29-0.17-0.58-0.18-0.87c-0.05-1.23,0.73-2.39,2-2.83
							C234.09,266.66,235.82,267.43,236.39,268.94z"/>
						<path class="st23" d="M235.36,268.11c0.35,0.93-0.36,2.03-1.58,2.45c-1.22,0.42-2.5,0.01-2.85-0.92
							c-0.35-0.93,0.36-2.03,1.58-2.45C233.74,266.77,235.01,267.18,235.36,268.11z"/>
						<path class="st23" d="M233.79,267.84c0.15,0.4-0.15,0.87-0.68,1.05c-0.52,0.18-1.07,0-1.22-0.39
							c-0.15-0.4,0.15-0.87,0.68-1.05C233.09,267.26,233.64,267.44,233.79,267.84z"/>
						<path class="st23" d="M235.02,268.31c-0.13,0.15-0.39,0.14-0.58-0.02c-0.19-0.16-0.24-0.4-0.11-0.55
							c0.13-0.15,0.39-0.14,0.58,0.02C235.1,267.92,235.15,268.16,235.02,268.31z"/>
						<g class="st24">
							<path class="st14" d="M236.99,270.49c-0.08,1.28-0.94,2.46-2.29,2.93c-1.81,0.62-3.8-0.27-4.45-2c-0.12-0.33-0.19-0.67-0.2-1
								c0.77,0.78,1.94,1.2,3.06,1.06c0.16-0.02,0.32-0.05,0.48-0.02c0.16,0.04,0.3,0.16,0.29,0.32c-0.01,0.13-0.13,0.24-0.13,0.38
								c0,0.19,0.24,0.31,0.43,0.26c0.19-0.05,0.32-0.21,0.41-0.38c0.1-0.16,0.17-0.34,0.31-0.47c0.09-0.09,0.22-0.15,0.34-0.13
								c0.12,0.02,0.24,0.14,0.2,0.25c-0.03,0.12-0.18,0.18-0.25,0.28c-0.12,0.18,0.06,0.44,0.28,0.46c0.22,0.02,0.42-0.15,0.5-0.35
								c0.08-0.2,0.06-0.42,0.02-0.63c-0.04-0.21-0.09-0.42-0.07-0.63c0.02-0.21,0.13-0.43,0.33-0.52c0.21-0.1,0.48-0.03,0.65,0.12
								C236.94,270.43,236.97,270.46,236.99,270.49z"/>
						</g>
					</g>
				</g>
				<g>
					<g>
						<path class="st14" d="M234.55,295.88c0.17,0.44,0.23,0.89,0.2,1.33c-0.08,1.28-0.94,2.46-2.29,2.93
							c-1.81,0.62-3.8-0.27-4.45-2c-0.12-0.33-0.19-0.67-0.2-1c-0.06-1.41,0.83-2.75,2.3-3.25
							C231.91,293.26,233.9,294.16,234.55,295.88z"/>
						<path class="st22" d="M234.15,295.66c0.14,0.38,0.2,0.78,0.17,1.16c-0.07,1.12-0.82,2.14-1.99,2.55
							c-1.57,0.54-3.31-0.24-3.87-1.74c-0.11-0.29-0.17-0.58-0.18-0.87c-0.05-1.23,0.73-2.39,2-2.83
							C231.85,293.38,233.58,294.16,234.15,295.66z"/>
						<path class="st23" d="M233.12,294.84c0.35,0.93-0.36,2.03-1.58,2.45c-1.22,0.42-2.5,0.01-2.85-0.92
							c-0.35-0.93,0.36-2.03,1.58-2.45C231.5,293.5,232.77,293.91,233.12,294.84z"/>
						<path class="st23" d="M231.55,294.56c0.15,0.4-0.15,0.87-0.68,1.05c-0.52,0.18-1.07,0-1.22-0.39s0.15-0.87,0.68-1.05
							C230.85,293.99,231.4,294.16,231.55,294.56z"/>
						<path class="st23" d="M232.78,295.03c-0.13,0.15-0.39,0.14-0.58-0.02c-0.19-0.16-0.24-0.4-0.11-0.55
							c0.13-0.15,0.39-0.14,0.58,0.02C232.86,294.64,232.91,294.89,232.78,295.03z"/>
						<g class="st24">
							<path class="st14" d="M234.75,297.21c-0.08,1.28-0.94,2.46-2.29,2.93c-1.81,0.62-3.8-0.27-4.45-2c-0.12-0.33-0.19-0.67-0.2-1
								c0.77,0.78,1.94,1.2,3.06,1.06c0.16-0.02,0.32-0.05,0.48-0.02c0.16,0.04,0.3,0.16,0.29,0.32c-0.01,0.13-0.13,0.24-0.13,0.38
								c0,0.19,0.24,0.31,0.43,0.26s0.32-0.21,0.41-0.38c0.1-0.16,0.17-0.34,0.31-0.47c0.09-0.09,0.22-0.15,0.34-0.13
								c0.12,0.02,0.24,0.14,0.2,0.25c-0.03,0.12-0.18,0.18-0.25,0.28c-0.12,0.18,0.06,0.44,0.28,0.46c0.22,0.02,0.42-0.15,0.5-0.35
								c0.08-0.2,0.06-0.42,0.02-0.63c-0.04-0.21-0.09-0.42-0.07-0.63c0.02-0.21,0.13-0.43,0.33-0.52c0.21-0.1,0.48-0.03,0.65,0.12
								C234.7,297.16,234.73,297.18,234.75,297.21z"/>
						</g>
					</g>
				</g>
				<g>
					<g>
						<path class="st14" d="M234.55,322.61c0.17,0.44,0.23,0.89,0.2,1.33c-0.08,1.28-0.94,2.46-2.29,2.93
							c-1.81,0.62-3.8-0.27-4.45-2c-0.12-0.33-0.19-0.67-0.2-1c-0.06-1.41,0.83-2.75,2.3-3.25
							C231.91,319.99,233.9,320.88,234.55,322.61z"/>
						<path class="st22" d="M234.15,322.39c0.14,0.38,0.2,0.78,0.17,1.16c-0.07,1.12-0.82,2.14-1.99,2.55
							c-1.57,0.54-3.31-0.24-3.87-1.74c-0.11-0.29-0.17-0.58-0.18-0.87c-0.05-1.23,0.73-2.39,2-2.83
							C231.85,320.11,233.58,320.89,234.15,322.39z"/>
						<path class="st23" d="M233.12,321.56c0.35,0.93-0.36,2.03-1.58,2.45c-1.22,0.42-2.5,0.01-2.85-0.92
							c-0.35-0.93,0.36-2.03,1.58-2.45C231.5,320.22,232.77,320.63,233.12,321.56z"/>
						<path class="st23" d="M231.55,321.29c0.15,0.4-0.15,0.87-0.68,1.05c-0.52,0.18-1.07,0-1.22-0.39
							c-0.15-0.4,0.15-0.87,0.68-1.05C230.85,320.71,231.4,320.89,231.55,321.29z"/>
						<path class="st23" d="M232.78,321.76c-0.13,0.15-0.39,0.14-0.58-0.02c-0.19-0.16-0.24-0.4-0.11-0.55
							c0.13-0.15,0.39-0.14,0.58,0.02C232.86,321.37,232.91,321.61,232.78,321.76z"/>
						<g class="st24">
							<path class="st14" d="M234.75,323.94c-0.08,1.28-0.94,2.46-2.29,2.93c-1.81,0.62-3.8-0.27-4.45-2c-0.12-0.33-0.19-0.67-0.2-1
								c0.77,0.78,1.94,1.2,3.06,1.06c0.16-0.02,0.32-0.05,0.48-0.02c0.16,0.04,0.3,0.17,0.29,0.32c-0.01,0.13-0.13,0.24-0.13,0.38
								c0,0.19,0.24,0.31,0.43,0.26s0.32-0.21,0.41-0.38c0.1-0.16,0.17-0.34,0.31-0.47c0.09-0.09,0.22-0.15,0.34-0.13
								c0.12,0.02,0.24,0.14,0.2,0.25c-0.03,0.12-0.18,0.18-0.25,0.28c-0.12,0.18,0.06,0.44,0.28,0.46c0.22,0.02,0.42-0.15,0.5-0.35
								c0.08-0.2,0.06-0.42,0.02-0.63c-0.04-0.21-0.09-0.42-0.07-0.63c0.02-0.21,0.13-0.43,0.33-0.52c0.21-0.1,0.48-0.03,0.65,0.12
								C234.7,323.88,234.73,323.91,234.75,323.94z"/>
						</g>
					</g>
				</g>
				<g>
					<g>
						<path class="st14" d="M234.55,349.33c0.17,0.44,0.23,0.89,0.2,1.33c-0.08,1.28-0.94,2.46-2.29,2.93
							c-1.81,0.62-3.8-0.27-4.45-2c-0.12-0.33-0.19-0.67-0.2-1c-0.06-1.41,0.83-2.75,2.3-3.25
							C231.91,346.71,233.9,347.61,234.55,349.33z"/>
						<path class="st22" d="M234.15,349.12c0.14,0.38,0.2,0.78,0.17,1.16c-0.07,1.12-0.82,2.14-1.99,2.55
							c-1.57,0.54-3.31-0.24-3.87-1.74c-0.11-0.29-0.17-0.58-0.18-0.87c-0.05-1.23,0.73-2.39,2-2.83
							C231.85,346.84,233.58,347.61,234.15,349.12z"/>
						<path class="st23" d="M233.12,348.29c0.35,0.93-0.36,2.03-1.58,2.45c-1.22,0.42-2.5,0.01-2.85-0.92
							c-0.35-0.93,0.36-2.03,1.58-2.45C231.5,346.95,232.77,347.36,233.12,348.29z"/>
						<path class="st23" d="M231.55,348.02c0.15,0.4-0.15,0.87-0.68,1.05c-0.52,0.18-1.07,0-1.22-0.39
							c-0.15-0.4,0.15-0.87,0.68-1.05C230.85,347.44,231.4,347.62,231.55,348.02z"/>
						<path class="st23" d="M232.78,348.49c-0.13,0.15-0.39,0.14-0.58-0.02c-0.19-0.16-0.24-0.4-0.11-0.55
							c0.13-0.15,0.39-0.14,0.58,0.02C232.86,348.1,232.91,348.34,232.78,348.49z"/>
						<g class="st24">
							<path class="st14" d="M234.75,350.67c-0.08,1.28-0.94,2.46-2.29,2.93c-1.81,0.62-3.8-0.27-4.45-2c-0.12-0.33-0.19-0.67-0.2-1
								c0.77,0.78,1.94,1.2,3.06,1.06c0.16-0.02,0.32-0.05,0.48-0.02c0.16,0.04,0.3,0.17,0.29,0.32c-0.01,0.13-0.13,0.24-0.13,0.38
								c0,0.19,0.24,0.31,0.43,0.26s0.32-0.21,0.41-0.38c0.1-0.16,0.17-0.34,0.31-0.47c0.09-0.09,0.22-0.15,0.34-0.13
								c0.12,0.02,0.24,0.14,0.2,0.25c-0.03,0.12-0.18,0.18-0.25,0.28c-0.12,0.18,0.06,0.44,0.28,0.46c0.22,0.02,0.42-0.15,0.5-0.35
								c0.08-0.2,0.06-0.42,0.02-0.63c-0.04-0.21-0.09-0.42-0.07-0.63c0.02-0.21,0.13-0.43,0.33-0.52c0.21-0.1,0.48-0.03,0.65,0.12
								C234.7,350.61,234.73,350.64,234.75,350.67z"/>
						</g>
					</g>
				</g>
				<g>
					<g>
						<path class="st14" d="M234.55,376.06c0.17,0.44,0.23,0.89,0.2,1.33c-0.08,1.28-0.94,2.46-2.29,2.93
							c-1.81,0.62-3.8-0.27-4.45-2c-0.12-0.33-0.19-0.67-0.2-1c-0.06-1.41,0.83-2.75,2.3-3.25
							C231.91,373.44,233.9,374.33,234.55,376.06z"/>
						<path class="st22" d="M234.15,375.84c0.14,0.38,0.2,0.78,0.17,1.16c-0.07,1.12-0.82,2.14-1.99,2.55
							c-1.57,0.54-3.31-0.24-3.87-1.74c-0.11-0.29-0.17-0.58-0.18-0.87c-0.05-1.22,0.73-2.39,2-2.83
							C231.85,373.56,233.58,374.34,234.15,375.84z"/>
						<path class="st23" d="M233.12,375.02c0.35,0.93-0.36,2.03-1.58,2.45c-1.22,0.42-2.5,0.01-2.85-0.92
							c-0.35-0.93,0.36-2.03,1.58-2.45C231.5,373.68,232.77,374.09,233.12,375.02z"/>
						<path class="st23" d="M231.55,374.74c0.15,0.4-0.15,0.87-0.68,1.05c-0.52,0.18-1.07,0-1.22-0.4c-0.15-0.4,0.15-0.87,0.68-1.05
							C230.85,374.17,231.4,374.34,231.55,374.74z"/>
						<path class="st23" d="M232.78,375.21c-0.13,0.15-0.39,0.14-0.58-0.02c-0.19-0.16-0.24-0.4-0.11-0.55
							c0.13-0.15,0.39-0.14,0.58,0.02C232.86,374.82,232.91,375.07,232.78,375.21z"/>
						<g class="st24">
							<path class="st14" d="M234.75,377.39c-0.08,1.28-0.94,2.46-2.29,2.93c-1.81,0.62-3.8-0.27-4.45-2c-0.12-0.33-0.19-0.67-0.2-1
								c0.77,0.78,1.94,1.2,3.06,1.06c0.16-0.02,0.32-0.05,0.48-0.02c0.16,0.04,0.3,0.17,0.29,0.32c-0.01,0.13-0.13,0.24-0.13,0.38
								c0,0.19,0.24,0.31,0.43,0.26s0.32-0.21,0.41-0.38c0.1-0.16,0.17-0.34,0.31-0.47c0.09-0.09,0.22-0.15,0.34-0.13
								c0.12,0.02,0.24,0.14,0.2,0.25c-0.03,0.12-0.18,0.18-0.25,0.28c-0.12,0.18,0.06,0.44,0.28,0.46c0.22,0.02,0.42-0.15,0.5-0.35
								c0.08-0.2,0.06-0.42,0.02-0.63c-0.04-0.21-0.09-0.42-0.07-0.63c0.02-0.21,0.13-0.43,0.33-0.52c0.21-0.1,0.48-0.03,0.65,0.12
								C234.7,377.34,234.73,377.36,234.75,377.39z"/>
						</g>
					</g>
				</g>
				<g>
					<g>
						<path class="st14" d="M236.48,402.79c0.17,0.44,0.23,0.89,0.2,1.33c-0.08,1.28-0.94,2.46-2.29,2.93
							c-1.81,0.62-3.8-0.27-4.45-2c-0.12-0.33-0.19-0.67-0.2-1c-0.06-1.41,0.83-2.75,2.3-3.25
							C233.84,400.17,235.83,401.06,236.48,402.79z"/>
						<path class="st22" d="M236.08,402.57c0.14,0.38,0.2,0.78,0.17,1.16c-0.07,1.12-0.82,2.14-1.99,2.55
							c-1.57,0.54-3.31-0.24-3.87-1.74c-0.11-0.29-0.17-0.58-0.18-0.87c-0.05-1.22,0.73-2.39,2-2.83
							C233.78,400.29,235.52,401.07,236.08,402.57z"/>
						<path class="st23" d="M235.06,401.74c0.35,0.93-0.36,2.03-1.58,2.45c-1.22,0.42-2.5,0.01-2.85-0.92
							c-0.35-0.93,0.36-2.03,1.58-2.45C233.43,400.4,234.71,400.81,235.06,401.74z"/>
						<path class="st23" d="M233.48,401.47c0.15,0.4-0.15,0.87-0.68,1.05c-0.52,0.18-1.07,0-1.22-0.39
							c-0.15-0.4,0.15-0.87,0.68-1.05C232.78,400.89,233.33,401.07,233.48,401.47z"/>
						<path class="st23" d="M234.72,401.94c-0.13,0.15-0.39,0.14-0.58-0.02c-0.19-0.16-0.24-0.4-0.11-0.55
							c0.13-0.15,0.39-0.14,0.58,0.02C234.79,401.55,234.84,401.79,234.72,401.94z"/>
						<g class="st24">
							<path class="st14" d="M236.68,404.12c-0.08,1.28-0.94,2.46-2.29,2.93c-1.81,0.62-3.8-0.27-4.45-2c-0.12-0.33-0.19-0.67-0.2-1
								c0.77,0.78,1.94,1.2,3.06,1.06c0.16-0.02,0.32-0.05,0.48-0.02c0.16,0.04,0.3,0.16,0.29,0.32c-0.01,0.13-0.13,0.24-0.13,0.38
								c0,0.19,0.24,0.31,0.43,0.26s0.32-0.21,0.41-0.38c0.1-0.16,0.17-0.34,0.31-0.47c0.09-0.09,0.22-0.15,0.34-0.13
								c0.12,0.02,0.24,0.14,0.2,0.25c-0.03,0.12-0.18,0.18-0.25,0.28c-0.12,0.18,0.06,0.44,0.28,0.46c0.22,0.02,0.42-0.15,0.5-0.35
								c0.08-0.2,0.06-0.42,0.02-0.63c-0.04-0.21-0.09-0.42-0.07-0.63c0.02-0.21,0.13-0.43,0.33-0.52c0.21-0.1,0.48-0.03,0.65,0.12
								C236.63,404.06,236.66,404.09,236.68,404.12z"/>
						</g>
					</g>
				</g>
			</g>
		</g>
		<g>
			<path class="st17" d="M246.55,230.27c-4.96,12.96-7.41,16.2-14.23,28.78c-2.86,1.53-7.11,11.24-9.93,12.23
				c0.06-0.11-7.03-6.94-9.68-10.39c-6.51-8.51-12.99-17.19-15.56-26.52c-0.87-3.2-1.27-6.43-1.68-9.68
				c-0.33-2.76-0.68-5.54-1.03-8.31c-0.07-0.64-0.15-1.3,0.24-1.89c0.41-0.59,1.42-1.05,2.36-0.87l1.11-0.84
				c1.25-0.25,2.4-3.77,3.56-3.38c15.32,5.2,30.72,5.08,43.88-0.29c1.45-0.59,3.27,3.26,4.91,3.58
				C251.01,218.62,248.78,224.5,246.55,230.27z"/>
		</g>
		<g>
			<g>
				<path class="st14" d="M222.39,271.29c0,0.01,0,0.01-0.02,0.02c-0.07-0.02-0.12-0.05-0.18-0.08c-0.48-0.19-0.96-0.4-1.44-0.61
					c-22.37-10.06-45.27-44.35-45.27-44.35l21.04-7.5c-14.37-5.47-17.02-11.51-17.02-11.51c8.49-7.24,26.94-9.35,26.94-9.35
					c-0.03,0.14-0.07,0.28-0.1,0.42c-0.03,0.16-0.07,0.34-0.1,0.5c-0.96,4.34-1.42,8.52-1.51,12.59
					c-0.45,21.7,10.15,40.2,17.55,59.62c0,0.01,0.02,0.04,0.02,0.05c0.02,0.04,0.03,0.08,0.05,0.12
					C222.36,271.24,222.38,271.25,222.39,271.29z"/>
				<path class="st14" d="M272.1,226.36c0,0-21.11,28.72-42.37,41.37c-1.94,1.15-3.87,2.17-5.79,3c-0.03,0.02-0.08,0.05-0.13,0.07
					c-0.02,0.01-0.05,0.02-0.07,0.04c-0.35,0.14-0.68,0.29-1.03,0.42c0,0-0.02,0.02-0.03,0.02c-0.02,0.01-0.05,0.02-0.08,0.02
					c0,0.01-0.02,0.01-0.03,0.01l-0.02,0.01c-0.07,0.04-0.13,0.06-0.2,0.08c-0.1,0.05-0.18,0.08-0.28,0.12
					c0.05-0.11,0.1-0.2,0.13-0.3c0.02-0.02,0.03-0.06,0.05-0.08c0.02-0.02,0.02-0.06,0.03-0.08c0.02-0.01,0.02-0.01,0.02-0.02
					c0.03-0.08,0.07-0.16,0.12-0.25c0.03-0.08,0.07-0.15,0.1-0.23c0.43-0.95,0.86-1.9,1.31-2.84c0.02-0.04,0.02-0.06,0.03-0.09
					c8.56-18.28,19.12-35.93,20.05-56.47c0.17-3.95,0-8.01-0.65-12.2c-0.02-0.19-0.03-0.39-0.08-0.57
					c-0.02-0.16-0.03-0.32-0.07-0.48c0,0,18.3,2.12,26.29,9.38c0,0-3.08,6.06-17.82,11.56L272.1,226.36z"/>
			</g>
			<g class="st25">
				<path class="st14" d="M222.59,271.31c-0.02,0-0.02-0.01-0.03-0.01c-0.05-0.02-0.1-0.05-0.15-0.07
					c-0.02-0.01-0.03-0.01-0.05-0.02c-0.03-0.01-0.08-0.04-0.12-0.06c-0.36-0.16-0.71-0.34-1.08-0.53
					c-19.31-10.06-39.06-44.35-39.06-44.35l18.16-7.5c-12.4-5.47-14.69-11.51-14.69-11.51c5.53-5.47,15.99-8.02,20.76-8.93
					c-0.03,0.16-0.07,0.34-0.1,0.5c-0.96,4.34-1.42,8.52-1.51,12.59c-0.45,21.7,10.15,40.2,17.55,59.62
					c0.03-0.08,0.07-0.16,0.12-0.25c0.03,0.08,0.05,0.16,0.08,0.25c0.02,0.06,0.05,0.12,0.07,0.18c0,0.01,0,0.01,0.02,0.02v0.01
					C222.58,271.28,222.59,271.29,222.59,271.31z"/>
				<path class="st14" d="M265.48,226.36c0,0-18.21,28.72-36.56,41.37c-1.66,1.15-3.33,2.16-4.98,3c-0.03,0.02-0.08,0.05-0.13,0.07
					c-0.02,0.01-0.05,0.02-0.07,0.04c-0.41,0.21-0.81,0.41-1.23,0.59c-0.07,0.05-0.15,0.07-0.22,0.11c0.02-0.04,0.03-0.08,0.05-0.12
					c0.02-0.04,0.03-0.07,0.03-0.11c0.02-0.01,0.02-0.01,0.02-0.02c0.02-0.02,0.02-0.04,0.02-0.06c0.02-0.02,0.02-0.05,0.03-0.07
					c0.02-0.04,0.03-0.08,0.05-0.12c0.03-0.08,0.07-0.15,0.1-0.23v-0.01c0.4-1.03,0.81-2.05,1.23-3.07
					c0.02-0.04,0.02-0.06,0.03-0.09c8.56-18.28,19.12-35.93,20.05-56.47c0.17-3.95,0-8.01-0.65-12.2c-0.02-0.19-0.03-0.39-0.08-0.57
					c4.82,0.95,14.84,3.51,19.97,8.9c0,0-2.65,6.06-15.37,11.56L265.48,226.36z"/>
			</g>
			<g class="st25">
				<path class="st14" d="M222.72,271.31c-0.02-0.01-0.03-0.01-0.05-0.02c-0.03-0.01-0.07-0.04-0.1-0.06c0,0-0.02,0-0.02-0.01
					c-0.03-0.01-0.08-0.04-0.12-0.06c-0.05-0.02-0.08-0.05-0.13-0.07c-0.02,0-0.02-0.01-0.03-0.02c-0.27-0.14-0.53-0.29-0.79-0.45
					c-17.04-10.06-34.47-44.35-34.47-44.35l16.03-7.5c-10.94-5.47-12.96-11.51-12.96-11.51c4.17-4.68,11.51-7.21,16.18-8.43
					c-0.96,4.34-1.42,8.52-1.51,12.59c-0.45,21.7,10.15,40.2,17.55,59.62c0.03-0.08,0.07-0.16,0.12-0.25
					c0.03-0.08,0.07-0.15,0.1-0.23c0.03,0.08,0.05,0.16,0.08,0.25c0.02,0.08,0.05,0.15,0.07,0.23c0.02,0.08,0.03,0.15,0.05,0.22
					C222.72,271.28,222.72,271.3,222.72,271.31z"/>
				<path class="st14" d="M260.58,226.36c0,0-16.08,28.72-32.27,41.37c-1.46,1.14-2.91,2.15-4.37,3c-0.03,0.02-0.08,0.05-0.13,0.07
					c-0.02,0.01-0.05,0.02-0.07,0.04c-0.41,0.25-0.84,0.48-1.26,0.69c0.02-0.04,0.02-0.07,0.03-0.11c0.02-0.04,0.02-0.06,0.03-0.09
					c0-0.01,0-0.02,0.02-0.04c0-0.01,0-0.04,0.02-0.05c0-0.01,0-0.01,0-0.02c0.03-0.06,0.05-0.13,0.08-0.19
					c0.38-1.11,0.76-2.22,1.16-3.32c0.02-0.04,0.02-0.06,0.03-0.09c8.56-18.28,19.12-35.93,20.05-56.47c0.17-3.95,0-8.01-0.65-12.2
					c4.6,1.27,11.46,3.8,15.27,8.32c0,0-2.35,6.06-13.56,11.56L260.58,226.36z"/>
			</g>
		</g>
		<g>
			<path class="st13" d="M264.78,104.58c-1.44-3.38-3.02-6.75-5.38-9.56c-2.69-3.19-6.28-5.51-9.99-7.43
				c-15.17-7.84-33.8-9.51-49.5-2.79c-15.7,6.71-27.71,22.28-28.53,39.33c-0.26,5.36,0.64,11.02,3.9,15.29
				c0.49,0.64,1.03,1.26,1.25,2.04c0.31,1.14-0.16,2.33-0.62,3.42c-2.46,5.91-4.58,12.31-3.47,18.61
				c1.11,6.3,6.49,12.28,12.88,11.92c-2.82,1.04-4.14,4.52-3.61,7.48c0.53,2.96,2.45,5.47,4.49,7.68c2.04,2.21,4.29,4.3,5.7,6.96
				c2.1,3.93,2.06,8.99-0.33,12.74c-2.39,3.76-7.13,5.95-11.5,5.08c8.05,5.22,19.66,2.02,25.7-5.44c6.04-7.46,7.2-17.94,5.34-27.35
				c-0.36-1.8-0.87-3.06-1.55-4.34c-0.91-1.69-2.08-3.23-3.41-4.62c-3.06-3.19-9.45-10.55-11.67-18.43c2.32,2.2,6.83,1.01,7.75-2.05
				c-2.76,0.27-4.7-3.07-4.27-5.81c0.43-2.74,2.32-4.98,3.85-7.3c1.43-2.18,2.54-4.55,3.35-7.03c8.56-4.08,15.91-10.74,20.63-18.98
				c1.77,2.49,5.48,2.9,8.3,1.74c2.82-1.16,4.96-3.51,6.97-5.81c-1.07,8.04,4.03,16.47,11.64,19.27c-3.02,1.84-4.98,5.3-5,8.83
				c-0.02,3.53,1.9,7.02,4.9,8.89c-3-0.51-5.55,3.6-3.76,6.06c0.37,0.51,0.87,0.94,1.17,1.5c0.72,1.35-0.01,3.12-1.23,4.05
				c-1.22,0.94-2.78,1.25-4.29,1.54c5.91-0.56,11.53-3.71,15.08-8.46c3.56-4.75,5-11.03,3.87-16.86c2.64,2.11,4.54,5.13,5.28,8.43
				C273.6,130.84,269.97,116.8,264.78,104.58z"/>
		</g>
	</g>
	<g>
		<g>
			<g>
				<polygon class="st17" points="437.5,409.6 8.82,409.6 27,380.04 419.31,380.04 				"/>
				<polygon class="st26" points="437.5,409.6 8.82,409.6 27,380.04 419.31,380.04 				"/>
				<g>
					<ellipse class="st17" cx="90.8" cy="398.89" rx="18.11" ry="1.39"/>
					<g>
						<g>
							<path class="st10" d="M102.34,398.47c4.32-2.4,7.12-24.31,7.21-30.17c0.13-9-6.24-17.01-15.09-18.68
								c-11.96-2.26-22.4,6.85-22.4,18.4c0,6.03,2.85,28.04,7.27,30.48c1.26,0.69,2.68,1.03,4.12,1.03h14.72
								C99.62,399.53,101.06,399.18,102.34,398.47z"/>
							<path class="st27" d="M108.06,365.88c0,8.91-7.73,30.95-17.26,30.95c-9.53,0-17.26-22.04-17.26-30.95
								c0-8.91,7.73-16.13,17.26-16.13C100.33,349.75,108.06,356.97,108.06,365.88z"/>
							<path class="st27" d="M105.77,365.01c0,7.73-6.7,29.21-14.97,29.21c-8.27,0-14.97-21.49-14.97-29.21
								c0-7.73,6.7-13.99,14.97-13.99C99.07,351.01,105.77,357.28,105.77,365.01z"/>
							<g>
								<path class="st10" d="M82.66,353.52c0,1.19,3.77,1.76,8.41,1.76c4.65,0,8.41-0.56,8.41-1.76c0-1.19-3.77-2.16-8.41-2.16
									C86.43,351.35,82.66,352.32,82.66,353.52z"/>
								<path class="st10" d="M83.82,353.43c0,0.67,3.25,0.98,7.25,0.98c4,0,7.25-0.31,7.25-0.98c0-0.67-3.24-1.59-7.24-1.59
									C87.08,351.83,83.82,352.76,83.82,353.43z"/>
							</g>
							<g>
								<path class="st17" d="M95.69,346.68c-0.12-0.65-0.33-1.28-0.61-1.87c-1.43-2.98-4.76-4.66-6.39-7.46
									c-0.21,1.4-2.49,7.34-2.75,9.06c-0.02,0.13-0.03,0.25-0.04,0.38c-0.21,2.98,2.32,5.34,5.22,5.14c0.2,0.88,0.1,1.82-0.3,2.64
									h0.4c0.25,0,0.5,0,0.74-0.01c0.33-0.88,0.38-1.83,0.2-2.74c1.26-0.1,2.39-0.87,3.04-1.99
									C95.76,348.86,95.88,347.75,95.69,346.68z"/>
								<g>
									<path class="st5" d="M92.91,347.78c-0.61-1.31-1.74-2.27-2.82-3.17c0,0,0,0,0,0c-0.21-0.34-0.82-0.18-0.67,0.24
										c0.46,1.31-0.22,2.63-0.38,3.93c-0.13,1.05,0.12,2.35,1.13,2.9c0.89,0.48,2.06,0.27,2.69-0.53
										C93.6,350.18,93.39,348.81,92.91,347.78z"/>
									<path class="st5" d="M92.46,349.12c-0.4-0.89-1.14-1.53-1.85-2.15c0,0,0,0,0,0c-0.13-0.23-0.54-0.12-0.44,0.16
										c0.3,0.88-0.14,1.78-0.25,2.66c-0.09,0.71,0.08,1.59,0.74,1.96c0.58,0.33,1.35,0.18,1.76-0.36
										C92.91,350.74,92.77,349.82,92.46,349.12z"/>
								</g>
							</g>
						</g>
					</g>
				</g>
				<rect x="8.82" y="409.6" class="st17" width="428.68" height="24.49"/>
				<rect x="8.82" y="421.78" class="st26" width="428.68" height="12.18"/>
			</g>
		</g>
		<g>
			<g>
				<path class="st13" d="M162.52,402.38L162.52,402.38c4.19,2.01,8.47,3.05,12.43,3.05h95.81c3.9,0,8.1-1,12.22-2.94l0,0
					c0.61-0.29,0.68-1.02,0.1-1.02H162.43C161.91,401.47,161.97,402.12,162.52,402.38z"/>
				<path class="st13" d="M282.34,402.48l-118.81,0.18c-0.41,0-1.09-0.21-1.17-0.37l-6.66-11.57c-0.97-1.69,0.25-3.8,2.2-3.8h130.52
					c1.98,0,3.2,2.17,2.16,3.86l-6.93,11.28C283.55,402.24,282.79,402.47,282.34,402.48z"/>
				<path class="st28" d="M282.34,402.48l-118.81,0.18c-0.41,0-1.09-0.21-1.17-0.37l-6.66-11.57c-0.97-1.69,0.25-3.8,2.2-3.8h130.52
					c1.98,0,3.2,2.17,2.16,3.86l-6.93,11.28C283.55,402.24,282.79,402.47,282.34,402.48z"/>
			</g>
			<path class="st13" d="M277.71,318.54H167.77c-2.69,0-4.87,2.18-4.87,4.87v78.97h119.67v-78.97
				C282.58,320.72,280.4,318.54,277.71,318.54z"/>
			<path class="st29" d="M272.23,320.97h-98.99c-4.4,0-7.96,3.56-7.96,7.96v69.25c0,1.82,1.47,3.29,3.29,3.29h108.33
				c1.82,0,3.29-1.47,3.29-3.29v-69.25C280.2,324.53,276.63,320.97,272.23,320.97z"/>
			<path class="st29" d="M267.43,326.65h-89.38c-4.1,0-7.43,3.33-7.43,7.43v62.41c0,1.76,1.43,3.19,3.19,3.19h97.86
				c1.76,0,3.19-1.43,3.19-3.19v-62.41C274.86,329.98,271.54,326.65,267.43,326.65z"/>
			<circle class="st14" cx="224.24" cy="364.22" r="8.35"/>
		</g>
	</g>
	<g>
		<g>
			<g>
				<path class="st0" d="M285.07,76.8c0,0,29.39,38.09,39.23,43.14c0,0,12.23-12.11,27.5-16.27c0,0-16.65-34.69-27.87-44.78
					C323.92,58.89,308.15,75.53,285.07,76.8z"/>
			</g>
			<g>
				<path class="st14" d="M313.31,72.29c-0.12,0-0.23-0.06-0.31-0.16c-0.12-0.17-0.08-0.41,0.09-0.53l9.21-6.56
					c0.17-0.12,0.41-0.08,0.53,0.09c0.12,0.17,0.08,0.41-0.09,0.53l-9.21,6.56C313.46,72.27,313.38,72.29,313.31,72.29z"/>
			</g>
			<g>
				<path class="st14" d="M315.97,75.57c-0.12,0-0.23-0.06-0.31-0.16c-0.12-0.17-0.08-0.41,0.09-0.53l9.21-6.56
					c0.17-0.12,0.41-0.08,0.53,0.09c0.12,0.17,0.08,0.41-0.09,0.53l-9.21,6.56C316.12,75.55,316.05,75.57,315.97,75.57z"/>
			</g>
			<g>
				<path class="st14" d="M306.1,94.52c-0.13,0-0.25-0.06-0.32-0.18c-0.11-0.18-0.05-0.41,0.12-0.52
					c0.17-0.11,17.08-10.56,24.25-17.54c0.15-0.15,0.39-0.14,0.53,0.01c0.15,0.15,0.14,0.39-0.01,0.53
					c-7.23,7.04-24.21,17.54-24.38,17.65C306.24,94.5,306.17,94.52,306.1,94.52z"/>
			</g>
			<g>
				<path class="st14" d="M308.75,98.13c-0.12,0-0.23-0.05-0.31-0.15c-0.12-0.17-0.09-0.41,0.08-0.53
					c0.15-0.11,15.49-11.38,24.06-17.92c0.17-0.13,0.4-0.1,0.53,0.07c0.13,0.17,0.1,0.4-0.07,0.53
					c-8.58,6.55-23.91,17.82-24.07,17.93C308.9,98.11,308.82,98.13,308.75,98.13z"/>
			</g>
			<g>
				<path class="st14" d="M312.44,101.2c-0.1,0-0.2-0.04-0.27-0.11c-0.15-0.15-0.14-0.39,0.01-0.54
					c0.13-0.13,13.35-12.9,23.51-17.35c0.19-0.08,0.41,0,0.5,0.19c0.08,0.19,0,0.41-0.19,0.5c-10.04,4.4-23.15,17.08-23.28,17.2
					C312.63,101.17,312.54,101.2,312.44,101.2z"/>
			</g>
			<g>
				<path class="st14" d="M315.21,103.85c-0.1,0-0.21-0.04-0.28-0.13c-0.14-0.16-0.12-0.4,0.03-0.53
					c0.69-0.61,16.91-14.96,22.73-16.54c0.2-0.05,0.41,0.07,0.46,0.27c0.05,0.2-0.06,0.41-0.27,0.46
					c-5.65,1.54-22.26,16.23-22.43,16.38C315.39,103.82,315.3,103.85,315.21,103.85z"/>
			</g>
			<g>
				<path class="st14" d="M318.26,106.31c-0.1,0-0.21-0.04-0.28-0.12c-0.14-0.15-0.13-0.39,0.03-0.53
					c0.59-0.54,14.62-13.13,21.55-15.78c0.19-0.07,0.41,0.02,0.49,0.22c0.07,0.2-0.02,0.41-0.22,0.49
					c-6.79,2.59-21.16,15.5-21.31,15.63C318.44,106.28,318.35,106.31,318.26,106.31z"/>
			</g>
			<g>
				<path class="st14" d="M320.57,108.9c-0.11,0-0.21-0.04-0.29-0.13c-0.14-0.16-0.12-0.4,0.04-0.53
					c0.62-0.55,15.34-13.39,21.23-14.72c0.2-0.05,0.41,0.08,0.45,0.29c0.05,0.2-0.08,0.41-0.29,0.45
					c-5.7,1.29-20.75,14.41-20.9,14.55C320.75,108.87,320.66,108.9,320.57,108.9z"/>
			</g>
		</g>
	</g>
	<g>
		<g>
			<g>
				<path class="st10" d="M146.48,174.95l-33.97,15.48c-1.91,0.87-4.15,0.03-5.02-1.88l-21.13-46.37c-0.87-1.91-0.03-4.15,1.88-5.02
					l33.97-15.48c1.91-0.87,4.15-0.03,5.02,1.88l21.13,46.37C149.23,171.83,148.39,174.08,146.48,174.95z"/>
				<path class="st0" d="M145.67,172.2l-34.7,15.81c-0.61,0.28-1.33,0.01-1.61-0.6l-20.91-45.89c-0.28-0.61-0.01-1.33,0.6-1.61
					l34.7-15.81c0.61-0.28,1.33-0.01,1.61,0.6l20.91,45.89C146.55,171.2,146.28,171.92,145.67,172.2z"/>
				<g>
					<path class="st10" d="M130.74,142.78c0.91,1.99,0.03,4.34-1.96,5.25c-1.99,0.91-4.34,0.03-5.24-1.97
						c-0.91-1.99-0.03-4.34,1.96-5.25C127.48,139.9,129.83,140.78,130.74,142.78z"/>
					<path class="st10" d="M135.19,152.55c0.91,1.99,0.03,4.34-1.96,5.25c-1.99,0.91-4.34,0.03-5.24-1.97
						c-0.91-1.99-0.03-4.34,1.96-5.25C131.94,149.68,134.28,150.56,135.19,152.55z"/>
					<path class="st10" d="M139.78,162.63c0.91,1.99,0.03,4.34-1.96,5.25c-1.99,0.91-4.34,0.03-5.24-1.97
						c-0.91-1.99-0.03-4.34,1.96-5.25C136.53,159.76,138.88,160.64,139.78,162.63z"/>
				</g>
			</g>
			<g>
				<g>
					<path class="st17" d="M114.56,124.73l-0.04,0.02l-0.23-0.51c-0.56-1.24-2.13-1.74-3.49-1.12l-4.04,1.84
						c-0.03-0.32-0.12-0.64-0.26-0.95c-0.77-1.7-2.92-2.38-4.78-1.53c-1.86,0.85-2.75,2.92-1.98,4.61c0.14,0.31,0.32,0.58,0.55,0.82
						l-3.09,1.41c-1.36,0.62-2.01,2.13-1.44,3.36l0.23,0.51l-0.36,0.16c-1.42,0.65-2.1,2.23-1.51,3.53
						c0.59,1.29,2.23,1.82,3.65,1.17l18.93-8.62c1.42-0.65,2.1-2.23,1.51-3.53C117.62,124.61,115.98,124.08,114.56,124.73z
						 M100.7,126.66c-0.55-1.21,0.08-2.7,1.42-3.3c1.34-0.61,2.88-0.12,3.43,1.1c0.14,0.31,0.21,0.64,0.2,0.97l-4.44,2.02
						C101.05,127.24,100.85,126.98,100.7,126.66z M96.72,132.25c-0.34-0.75,0.05-1.68,0.88-2.05l13.6-6.2
						c0.83-0.38,1.79-0.07,2.13,0.68l0.23,0.51l-16.61,7.57L96.72,132.25z"/>
				</g>
			</g>
			<path class="st14" d="M125.74,133.65l-30.73,14c-0.38,0.18-0.84,0.01-1.01-0.38l-0.29-0.63c-0.18-0.38-0.01-0.84,0.38-1.01
				l30.73-14c0.38-0.18,0.84-0.01,1.01,0.38l0.29,0.63C126.29,133.02,126.12,133.48,125.74,133.65z"/>
			<g>
				<g>
					<path class="st14" d="M115.63,148.95l-16.88,7.69c-0.22,0.1-0.49,0-0.59-0.22l-0.17-0.37c-0.1-0.22,0-0.49,0.22-0.59
						l16.88-7.69c0.22-0.1,0.49,0,0.59,0.22l0.17,0.37C115.95,148.59,115.85,148.85,115.63,148.95z"/>
					<path class="st14" d="M120.46,150.19l-20.42,9.3c-0.22,0.1-0.49,0-0.59-0.22l-0.17-0.37c-0.1-0.22,0-0.49,0.22-0.59l20.42-9.3
						c0.22-0.1,0.49,0,0.59,0.22l0.17,0.37C120.78,149.82,120.69,150.09,120.46,150.19z"/>
				</g>
				<g>
					<path class="st14" d="M119.9,158.33l-16.88,7.69c-0.22,0.1-0.49,0-0.59-0.22l-0.17-0.37c-0.1-0.22,0-0.49,0.22-0.59l16.88-7.69
						c0.22-0.1,0.49,0,0.59,0.22l0.17,0.37C120.23,157.97,120.13,158.23,119.9,158.33z"/>
					<path class="st14" d="M124.74,159.57l-20.42,9.3c-0.22,0.1-0.49,0-0.59-0.22l-0.17-0.37c-0.1-0.22,0-0.49,0.22-0.59l20.42-9.3
						c0.22-0.1,0.49,0,0.59,0.22l0.17,0.37C125.06,159.21,124.96,159.47,124.74,159.57z"/>
				</g>
				<g>
					<path class="st14" d="M124.33,168.04l-16.88,7.69c-0.22,0.1-0.49,0-0.59-0.22l-0.17-0.37c-0.1-0.22,0-0.49,0.22-0.59
						l16.88-7.69c0.22-0.1,0.49,0,0.59,0.22l0.17,0.37C124.65,167.68,124.55,167.94,124.33,168.04z"/>
					<path class="st14" d="M129.16,169.28l-20.42,9.3c-0.22,0.1-0.49,0-0.59-0.22l-0.17-0.37c-0.1-0.22,0-0.49,0.22-0.59l20.42-9.3
						c0.22-0.1,0.49,0,0.59,0.22l0.17,0.37C129.48,168.91,129.38,169.18,129.16,169.28z"/>
				</g>
			</g>
		</g>
		<g>
			<g>
				<g>
					<path class="st17" d="M260.76,58.69h-63.86V12.22c0-1.38,1.12-2.51,2.51-2.51h58.84c1.38,0,2.51,1.12,2.51,2.51V58.69z"/>
					<rect x="196.91" y="12.37" class="st5" width="63.86" height="46.32"/>
				</g>
				<g>
					<path class="st17" d="M207.75,21.5c0,1.76-1.43,3.19-3.19,3.19c-1.76,0-3.19-1.43-3.19-3.19c0-1.76,1.43-3.19,3.19-3.19
						C206.32,18.3,207.75,19.73,207.75,21.5z"/>
					<path class="st0" d="M217.46,21.5c0,1.76-1.43,3.19-3.19,3.19c-1.76,0-3.19-1.43-3.19-3.19c0-1.76,1.43-3.19,3.19-3.19
						C216.03,18.3,217.46,19.73,217.46,21.5z"/>
					<path class="st17" d="M227.17,21.5c0,1.76-1.43,3.19-3.19,3.19c-1.76,0-3.19-1.43-3.19-3.19c0-1.76,1.43-3.19,3.19-3.19
						C225.74,18.3,227.17,19.73,227.17,21.5z"/>
					<path class="st0" d="M236.89,21.5c0,1.76-1.43,3.19-3.19,3.19c-1.76,0-3.19-1.43-3.19-3.19c0-1.76,1.43-3.19,3.19-3.19
						C235.46,18.3,236.89,19.73,236.89,21.5z"/>
					<path class="st17" d="M246.6,21.5c0,1.76-1.43,3.19-3.19,3.19c-1.76,0-3.19-1.43-3.19-3.19c0-1.76,1.43-3.19,3.19-3.19
						C245.17,18.3,246.6,19.73,246.6,21.5z"/>
					<path class="st0" d="M256.31,21.5c0,1.76-1.43,3.19-3.19,3.19c-1.76,0-3.19-1.43-3.19-3.19c0-1.76,1.43-3.19,3.19-3.19
						C254.88,18.3,256.31,19.73,256.31,21.5z"/>
				</g>
				<g>
					<path class="st0" d="M253.6,53.22h-49.53c-1.62,0-2.93-1.31-2.93-2.93V31.47c0-1.62,1.31-2.93,2.93-2.93h49.53
						c1.62,0,2.93,1.31,2.93,2.93v18.82C256.53,51.91,255.22,53.22,253.6,53.22z"/>
					<g>
						<g>
							<rect x="204.55" y="32.82" class="st14" width="46.78" height="0.83"/>
							<rect x="204.55" y="35.53" class="st14" width="21.38" height="0.83"/>
							<rect x="227.17" y="35.53" class="st14" width="10.4" height="0.83"/>
						</g>
						<g>
							<rect x="204.55" y="39.45" class="st14" width="46.78" height="0.83"/>
							<rect x="204.55" y="42.16" class="st14" width="21.38" height="0.83"/>
							<rect x="227.17" y="42.16" class="st14" width="10.4" height="0.83"/>
						</g>
						<g>
							<rect x="204.55" y="46.08" class="st14" width="36.27" height="0.83"/>
							<rect x="204.55" y="48.79" class="st14" width="21.38" height="0.83"/>
							<rect x="227.17" y="48.79" class="st14" width="10.4" height="0.83"/>
						</g>
					</g>
				</g>
			</g>
			<g>
				<g>
					<g>
						<path class="st17" d="M274.23,66.88h-26.1c-1.57,0-2.85-1.28-2.85-2.85V45.85h31.8v18.18
							C277.08,65.6,275.81,66.88,274.23,66.88z"/>
					</g>
					<path class="st17" d="M277.09,45.85L262.6,60.58c-0.55,0.56-1.46,0.58-2.03,0.02l-15.29-14.75l14.48-14.72
						c0.55-0.56,1.46-0.58,2.03-0.02L277.09,45.85z"/>
					<g>
						<polygon class="st0" points="272.04,35.82 250.33,35.82 250.33,50.66 261.56,61.57 272.04,50.66 						"/>
						<g>
							<g>
								<path class="st14" d="M262.35,39.47h-10.1c-0.14,0-0.25-0.11-0.25-0.25v-0.16c0-0.14,0.11-0.25,0.25-0.25h10.1
									c0.14,0,0.25,0.11,0.25,0.25v0.16C262.6,39.36,262.48,39.47,262.35,39.47z"/>
								<path class="st14" d="M260.64,41.07h-8.39c-0.14,0-0.25-0.11-0.25-0.25v-0.16c0-0.14,0.11-0.25,0.25-0.25h8.39
									c0.14,0,0.25,0.11,0.25,0.25v0.16C260.89,40.96,260.78,41.07,260.64,41.07z"/>
							</g>
						</g>
						<g>
							<g>
								<path class="st14" d="M262.35,43.68h-10.1c-0.14,0-0.25-0.11-0.25-0.25v-0.16c0-0.14,0.11-0.25,0.25-0.25h10.1
									c0.14,0,0.25,0.11,0.25,0.25v0.16C262.6,43.57,262.48,43.68,262.35,43.68z"/>
								<path class="st14" d="M260.64,45.28h-8.39c-0.14,0-0.25-0.11-0.25-0.25v-0.16c0-0.14,0.11-0.25,0.25-0.25h8.39
									c0.14,0,0.25,0.11,0.25,0.25v0.16C260.89,45.16,260.78,45.28,260.64,45.28z"/>
							</g>
						</g>
						<g>
							<g>
								<path class="st14" d="M259.27,50.75h10.1c0.14,0,0.25-0.11,0.25-0.25v-0.16c0-0.14-0.11-0.25-0.25-0.25h-10.1
									c-0.14,0-0.25,0.11-0.25,0.25v0.16C259.02,50.64,259.13,50.75,259.27,50.75z"/>
								<path class="st14" d="M260.97,52.34h8.39c0.14,0,0.25-0.11,0.25-0.25v-0.16c0-0.14-0.11-0.25-0.25-0.25h-8.39
									c-0.14,0-0.25,0.11-0.25,0.25v0.16C260.72,52.23,260.84,52.34,260.97,52.34z"/>
							</g>
						</g>
					</g>
				</g>
				<g>
					<polygon class="st30" points="262.43,60.72 261.61,61.57 277.09,45.85 					"/>
					<polygon class="st30" points="245.28,45.85 261.61,61.57 260.79,60.78 					"/>
				</g>
			</g>
		</g>
		<g>
			<g>
				<g>
					<path class="st5" d="M168.51,80.97l-34.13,13.5c-1.83,0.73-3.91-0.17-4.64-2.01l-9.35-23.64l40.77-16.12l9.35,23.64
						C171.24,78.17,170.34,80.24,168.51,80.97z"/>
				</g>
				<path class="st5" d="M161.17,52.69l-11.1,26.22c-0.42,1-1.58,1.48-2.6,1.06l-27.08-11.16L161.17,52.69z"/>
			</g>
			<g>
				<polygon class="st31" points="149.93,79.19 149.29,80.69 161.17,52.69 				"/>
				<polygon class="st31" points="120.39,68.82 149.29,80.69 147.85,80.1 				"/>
			</g>
		</g>
		<g>
			<g>
				<path class="st14" d="M369.63,175.93h-76.31c-2.46,0-4.46-2-4.46-4.46v-26.63c0-2.46,2-4.46,4.46-4.46h76.31
					c2.46,0,4.46,2,4.46,4.46v26.63C374.09,173.93,372.09,175.93,369.63,175.93z"/>
				<path class="st32" d="M368.54,174.92h-74.13c-2.39,0-4.33-1.94-4.33-4.33v-25.87c0-2.39,1.94-4.33,4.33-4.33h74.13
					c2.39,0,4.33,1.94,4.33,4.33v25.87C372.88,172.98,370.94,174.92,368.54,174.92z"/>
				<path class="st17" d="M374.09,146.07h-85.23v-1.22c0-2.46,2-4.46,4.46-4.46h76.31c2.46,0,4.46,2,4.46,4.46V146.07z"/>
				<g>
					<path class="st5" d="M367.82,143.71c0,0.72,0.58,1.3,1.3,1.3c0.72,0,1.3-0.58,1.3-1.3c0-0.72-0.58-1.3-1.3-1.3
						C368.4,142.41,367.82,143,367.82,143.71z"/>
					<path class="st0" d="M361.85,143.71c0,0.72,0.58,1.3,1.3,1.3c0.72,0,1.3-0.58,1.3-1.3c0-0.72-0.58-1.3-1.3-1.3
						C362.44,142.41,361.85,143,361.85,143.71z"/>
					<path class="st10" d="M355.89,143.71c0,0.72,0.58,1.3,1.3,1.3c0.72,0,1.3-0.58,1.3-1.3c0-0.72-0.58-1.3-1.3-1.3
						C356.47,142.41,355.89,143,355.89,143.71z"/>
				</g>
			</g>
			<g>
				<g>
					<g>
						<g>
							<path class="st5" d="M318.38,169.01h-21.73c-1.4,0-2.53-1.13-2.53-2.53V151.3h26.79v15.19
								C320.91,167.88,319.78,169.01,318.38,169.01z"/>
						</g>
						<path class="st5" d="M320.91,151.29l-12.2,12.41c-0.47,0.47-1.23,0.49-1.71,0.02l-12.88-12.42H320.91z"/>
					</g>
					<g>
						<polygon class="st33" points="308.57,163.82 307.87,164.53 320.91,151.29 						"/>
						<polygon class="st33" points="294.12,151.29 307.87,164.53 307.19,163.87 						"/>
					</g>
				</g>
				<g>
					<g>
						<rect x="324.28" y="153.5" class="st17" width="44.56" height="0.91"/>
						<rect x="324.28" y="157.54" class="st17" width="23.49" height="0.91"/>
						<rect x="349.13" y="157.54" class="st17" width="11.43" height="0.91"/>
					</g>
					<g>
						<rect x="324.28" y="161.69" class="st17" width="39.85" height="0.91"/>
						<rect x="324.28" y="165.89" class="st17" width="23.49" height="0.91"/>
						<rect x="349.13" y="165.89" class="st17" width="11.43" height="0.91"/>
					</g>
				</g>
			</g>
		</g>
	</g>
</g>
</svg>
