<svg width="60" height="60" viewBox="0 0 60 60" fill="none" xmlns="http://www.w3.org/2000/svg">
<g clip-path="url(#clip0_1384_439)">
<path d="M29.9987 56.9843C43.2528 56.9843 53.9974 55.6477 53.9974 53.9988H6C6 55.6477 16.7446 56.9843 29.9987 56.9843Z" fill="url(#paint0_radial_1384_439)"/>
<path d="M12.0014 49.4992L0.00195312 50.8585V51.0695C0.00195312 52.6874 1.31357 53.999 2.93151 53.999H11.9311C11.5956 53.999 12.1977 51.3387 12.0014 49.4992V49.4992Z" fill="url(#paint1_radial_1384_439)"/>
<path d="M11.9311 24.0003H2.93151C1.31357 24.0003 0.00195312 25.3119 0.00195312 26.9299V50.8585H11.1334C10.3827 43.8245 10.6485 24.0003 11.9311 24.0003Z" fill="url(#paint2_radial_1384_439)"/>
<path d="M57.0701 53.999H11.9315C10.3136 53.999 9.00195 52.6873 9.00195 51.0694V26.9299C9.00195 25.3119 10.3136 24.0003 11.9315 24.0003H57.0701C58.688 24.0003 59.9997 25.3119 59.9997 26.9299V51.0694C59.9995 52.6873 58.688 53.999 57.0701 53.999Z" fill="url(#paint3_radial_1384_439)"/>
<path d="M56.9999 31.5H55.4297C53.8117 31.5 52.5001 30.1884 52.5001 28.5704V27.0002H16.5018V28.5704C16.5018 30.1884 15.1901 31.5 13.5722 31.5H12.002V46.4993H13.5722C15.1901 46.4993 16.5018 47.8109 16.5018 49.4289V50.9991H52.5001V49.4289C52.5001 47.8109 53.8117 46.4993 55.4297 46.4993H56.9999V31.5ZM34.5009 49.4992C28.7022 49.4992 24.0014 44.7984 24.0014 38.9996C24.0014 33.2009 28.7022 28.5001 34.5009 28.5001C40.2997 28.5001 45.0005 33.2009 45.0005 38.9996C45.0003 44.7984 40.2996 49.4992 34.5009 49.4992Z" fill="url(#paint4_radial_1384_439)"/>
<path d="M34.5018 37.9274C33.224 37.9274 32.1949 36.8622 32.2543 35.5712C32.307 34.4256 33.2498 33.4827 34.3955 33.43C35.5851 33.3753 36.5831 34.2449 36.7324 35.3818C36.7549 35.5528 36.9068 35.6774 37.0793 35.6774H38.6351C38.8381 35.6774 39.0028 35.5056 38.9862 35.3032C38.8274 33.3735 37.4509 31.7888 35.6267 31.3193V30.3514C35.6267 30.1572 35.4693 29.9998 35.2752 29.9998H33.7284C33.5342 29.9998 33.3768 30.1572 33.3768 30.3514V31.3193C31.436 31.8188 30.002 33.5807 30.002 35.6773C30.002 38.1428 31.9848 40.1451 34.4427 40.1767C35.6875 40.1928 36.7406 41.162 36.7515 42.4068C36.7625 43.6587 35.751 44.6769 34.5018 44.6769C33.3613 44.6769 32.4191 43.8284 32.2719 42.7283C32.2487 42.5552 32.0994 42.4271 31.9248 42.4271H30.3685C30.1655 42.4271 30.0008 42.5989 30.0174 42.8013C30.1762 44.731 31.5527 46.3157 33.3769 46.7852V47.6477C33.3769 47.8419 33.5343 47.9992 33.7285 47.9992H35.2753C35.4694 47.9992 35.6268 47.8419 35.6268 47.6477V46.7852C37.5676 46.2857 39.0017 44.524 39.0017 42.4272C39.0014 39.942 36.9868 37.9274 34.5018 37.9274V37.9274Z" fill="url(#paint5_radial_1384_439)"/>
<path d="M31.499 22.544C30.7492 22.544 29.9995 22.2579 29.4274 21.686L28.1145 20.3731C27.5652 19.8237 26.82 19.5151 26.043 19.5151L29.999 18.015C29.999 18.015 33.7491 22.544 34.4988 22.544H31.499Z" fill="url(#paint6_radial_1384_439)"/>
<path d="M14.9996 19.515H6V7.5155L16.4995 6.01556L14.9996 19.515Z" fill="url(#paint7_radial_1384_439)"/>
<path d="M10.7573 7.51549H1.75773C0.786996 7.51549 0 6.72849 0 5.75776V4.51562H8.9996L10.7573 7.51549Z" fill="url(#paint8_radial_1384_439)"/>
<path d="M52.498 7.5155V25.8428C52.498 26.49 53.0227 27.0146 53.6699 27.0146H55.1698C54.5226 27.0146 53.998 7.5155 53.998 7.5155H52.498Z" fill="url(#paint9_radial_1384_439)"/>
<path d="M55.498 27.0146H55.1699C54.5227 27.0146 53.998 26.49 53.998 25.8428V7.5155H55.498V27.0146Z" fill="url(#paint10_radial_1384_439)"/>
<path d="M31.1699 3.01569C30.5227 3.01569 29.998 3.54031 29.998 4.18751V4.51562L31.498 6.01555C31.498 6.01555 32.0226 3.01569 32.6698 3.01569" fill="url(#paint11_radial_1384_439)"/>
<path d="M55.497 4.51562H31.498V4.18751C31.498 3.54031 32.0227 3.01569 32.6699 3.01569H54.3251C54.9723 3.01569 55.497 3.54031 55.497 4.18751V4.51562Z" fill="url(#paint12_radial_1384_439)"/>
<path d="M35.9991 6.01556L15 7.5155V19.515H29.0432C29.8202 19.515 30.5653 19.8236 31.1148 20.373L32.4277 21.6859C33.5717 22.8299 35.4266 22.8299 36.5707 21.6859L37.8836 20.373C38.4329 19.8236 39.1781 19.515 39.9551 19.515H53.9982V7.5155L35.9991 6.01556Z" fill="url(#paint13_radial_1384_439)"/>
<path d="M10.7577 7.51549H58.24C59.2107 7.51549 59.9977 6.72849 59.9977 5.75776V4.51562H9V5.75776C9 6.72849 9.787 7.51549 10.7577 7.51549V7.51549Z" fill="url(#paint14_radial_1384_439)"/>
</g>
<defs>
<radialGradient id="paint0_radial_1384_439" cx="0" cy="0" r="1" gradientUnits="userSpaceOnUse" gradientTransform="translate(29.6823 54.0017) scale(23.0315 2.79544)">
<stop stop-color="#D1F4B0"/>
<stop offset="0.5119" stop-color="#E9F9D9"/>
<stop offset="0.5188" stop-color="#E9F9D9"/>
<stop offset="0.9755" stop-color="white"/>
</radialGradient>
<radialGradient id="paint1_radial_1384_439" cx="0" cy="0" r="1" gradientUnits="userSpaceOnUse" gradientTransform="translate(1.91601 50.7799) scale(15.9228 4.34694)">
<stop stop-color="#C4F19B"/>
<stop offset="0.518" stop-color="#A4ED62"/>
<stop offset="0.7855" stop-color="#85E026"/>
<stop offset="0.9755" stop-color="#72D800"/>
</radialGradient>
<radialGradient id="paint2_radial_1384_439" cx="0" cy="0" r="1" gradientUnits="userSpaceOnUse" gradientTransform="translate(4.92337 23.9112) scale(27.5452 27.5452)">
<stop stop-color="#E0F6DF"/>
<stop offset="0.5145" stop-color="#DDF7C5"/>
<stop offset="0.5599" stop-color="#DAF7C0"/>
<stop offset="0.9755" stop-color="#C4F19B"/>
</radialGradient>
<radialGradient id="paint3_radial_1384_439" cx="0" cy="0" r="1" gradientUnits="userSpaceOnUse" gradientTransform="translate(53.9593 41.3045) scale(44.8762)">
<stop stop-color="#7BE700"/>
<stop offset="0.5119" stop-color="#72D800"/>
<stop offset="0.8085" stop-color="#26B847"/>
<stop offset="0.9755" stop-color="#00A96A"/>
</radialGradient>
<radialGradient id="paint4_radial_1384_439" cx="0" cy="0" r="1" gradientUnits="userSpaceOnUse" gradientTransform="translate(53.9594 41.3343) scale(44.7904 44.7904)">
<stop stop-color="#C4F19B"/>
<stop offset="0.518" stop-color="#A4ED62"/>
<stop offset="0.7855" stop-color="#85E026"/>
<stop offset="0.9755" stop-color="#72D800"/>
</radialGradient>
<radialGradient id="paint5_radial_1384_439" cx="0" cy="0" r="1" gradientUnits="userSpaceOnUse" gradientTransform="translate(53.9602 41.3343) scale(44.7905 44.7904)">
<stop stop-color="#C4F19B"/>
<stop offset="0.518" stop-color="#A4ED62"/>
<stop offset="0.7855" stop-color="#85E026"/>
<stop offset="0.9755" stop-color="#72D800"/>
</radialGradient>
<radialGradient id="paint6_radial_1384_439" cx="0" cy="0" r="1" gradientUnits="userSpaceOnUse" gradientTransform="translate(28.2478 22.3733) scale(8.08217 3.21671)">
<stop stop-color="#8ABBD5"/>
<stop offset="0.4303" stop-color="#6CABCA"/>
<stop offset="1" stop-color="#0681AF"/>
</radialGradient>
<radialGradient id="paint7_radial_1384_439" cx="0" cy="0" r="1" gradientUnits="userSpaceOnUse" gradientTransform="translate(7.45751 16.4755) scale(11.4523)">
<stop stop-color="#8ABBD5"/>
<stop offset="0.4303" stop-color="#6CABCA"/>
<stop offset="1" stop-color="#0681AF"/>
</radialGradient>
<radialGradient id="paint8_radial_1384_439" cx="0" cy="0" r="1" gradientUnits="userSpaceOnUse" gradientTransform="translate(-3.19772 6.30916) rotate(179.656) scale(15.5751 18.2383)">
<stop stop-color="#E6F6FF"/>
<stop offset="0.3758" stop-color="#C0DAE9"/>
<stop offset="0.4303" stop-color="#BAD6E5"/>
<stop offset="1" stop-color="#8ABBD5"/>
</radialGradient>
<radialGradient id="paint9_radial_1384_439" cx="0" cy="0" r="1" gradientUnits="userSpaceOnUse" gradientTransform="translate(53.1485 25.7339) scale(4.40839 4.4084)">
<stop stop-color="#FFCB9B"/>
<stop offset="0.518" stop-color="#FFBA7C"/>
<stop offset="0.7495" stop-color="#FFA850"/>
<stop offset="0.9755" stop-color="#FF982A"/>
</radialGradient>
<radialGradient id="paint10_radial_1384_439" cx="0" cy="0" r="1" gradientUnits="userSpaceOnUse" gradientTransform="translate(59.7795 16.8792) rotate(90) scale(12.1493 6.85224)">
<stop stop-color="#FFAB56"/>
<stop offset="0.5119" stop-color="#FF982A"/>
<stop offset="0.5978" stop-color="#FF8F2A"/>
<stop offset="0.9755" stop-color="#FF6927"/>
</radialGradient>
<radialGradient id="paint11_radial_1384_439" cx="0" cy="0" r="1" gradientUnits="userSpaceOnUse" gradientTransform="translate(30.7973 2.86011) scale(5.27906 1.2617)">
<stop stop-color="#FFF9E2"/>
<stop offset="0.5354" stop-color="#FFE4CB"/>
<stop offset="0.6229" stop-color="#FFDFC1"/>
<stop offset="0.9729" stop-color="#FFCB9B"/>
</radialGradient>
<radialGradient id="paint12_radial_1384_439" cx="0" cy="0" r="1" gradientUnits="userSpaceOnUse" gradientTransform="translate(58.306 3.68497) scale(4.1217 2.54426)">
<stop stop-color="#FFAB56"/>
<stop offset="0.5119" stop-color="#FF982A"/>
<stop offset="0.5978" stop-color="#FF8F2A"/>
<stop offset="0.9755" stop-color="#FF6927"/>
</radialGradient>
<radialGradient id="paint13_radial_1384_439" cx="0" cy="0" r="1" gradientUnits="userSpaceOnUse" gradientTransform="translate(38.9099 23.6924) scale(27.9666 17.3393)">
<stop stop-color="#3692BC"/>
<stop offset="0.5038" stop-color="#0681AF"/>
<stop offset="0.9755" stop-color="#0055A3"/>
</radialGradient>
<radialGradient id="paint14_radial_1384_439" cx="0" cy="0" r="1" gradientUnits="userSpaceOnUse" gradientTransform="translate(75.1499 6.30902) rotate(0.0606625) scale(73.9358 15.2782)">
<stop stop-color="#3692BC"/>
<stop offset="0.5038" stop-color="#0681AF"/>
<stop offset="0.9755" stop-color="#0055A3"/>
</radialGradient>
<clipPath id="clip0_1384_439">
<rect width="60" height="60" fill="white"/>
</clipPath>
</defs>
</svg>
